{
    "name": "Global Information",
    "numberOfRequests": {
        "total": 24283,
        "ok": 24280,
        "ko": 3
    },
    "minResponseTime": {
        "total": 18,
        "ok": 210,
        "ko": 18
    },
    "maxResponseTime": {
        "total": 4497,
        "ok": 4497,
        "ko": 523
    },
    "meanResponseTime": {
        "total": 1021,
        "ok": 1022,
        "ko": 237
    },
    "standardDeviation": {
        "total": 503,
        "ok": 503,
        "ko": 212
    },
    "percentiles1": {
        "total": 1291,
        "ok": 1291,
        "ko": 170
    },
    "percentiles2": {
        "total": 1306,
        "ok": 1306,
        "ko": 347
    },
    "percentiles3": {
        "total": 1541,
        "ok": 1540,
        "ko": 488
    },
    "percentiles4": {
        "total": 2222,
        "ok": 2222,
        "ko": 516
    },
    "group1": {
    "name": "t < 800 ms",
    "count": 6806,
    "percentage": 28
},
    "group2": {
    "name": "800 ms < t < 1200 ms",
    "count": 3902,
    "percentage": 16
},
    "group3": {
    "name": "t > 1200 ms",
    "count": 13572,
    "percentage": 56
},
    "group4": {
    "name": "failed",
    "count": 3,
    "percentage": 0
},
    "meanNumberOfRequestsPerSecond": {
        "total": 33.540055248618785,
        "ok": 33.53591160220994,
        "ko": 0.004143646408839779
    }
}