{
  "type": "GROUP",
"name": "Global Information",
"path": "",
"pathFormatted": "group_missing-name-b06d1",
"stats": {
    "name": "Global Information",
    "numberOfRequests": {
        "total": 223805,
        "ok": 223585,
        "ko": 220
    },
    "minResponseTime": {
        "total": 210,
        "ok": 210,
        "ko": 371
    },
    "maxResponseTime": {
        "total": 324782,
        "ok": 315616,
        "ko": 324782
    },
    "meanResponseTime": {
        "total": 3284,
        "ok": 3188,
        "ko": 101078
    },
    "standardDeviation": {
        "total": 6664,
        "ok": 4379,
        "ko": 126960
    },
    "percentiles1": {
        "total": 2015,
        "ok": 2013,
        "ko": 25780
    },
    "percentiles2": {
        "total": 4115,
        "ok": 4106,
        "ko": 130893
    },
    "percentiles3": {
        "total": 9930,
        "ok": 9868,
        "ko": 320001
    },
    "percentiles4": {
        "total": 18049,
        "ok": 17692,
        "ko": 320235
    },
    "group1": {
    "name": "t < 800 ms",
    "count": 51906,
    "percentage": 23
},
    "group2": {
    "name": "800 ms < t < 1200 ms",
    "count": 22950,
    "percentage": 10
},
    "group3": {
    "name": "t > 1200 ms",
    "count": 148729,
    "percentage": 66
},
    "group4": {
    "name": "failed",
    "count": 220,
    "percentage": 0
},
    "meanNumberOfRequestsPerSecond": {
        "total": 135.06638503319252,
        "ok": 134.93361496680748,
        "ko": 0.1327700663850332
    }
},
"contents": {
"req_siette--abrir-s-be296": {
        "type": "REQUEST",
        "name": "Siette> Abrir Siette",
"path": "Siette> Abrir Siette",
"pathFormatted": "req_siette--abrir-s-be296",
"stats": {
    "name": "Siette> Abrir Siette",
    "numberOfRequests": {
        "total": 8000,
        "ok": 7992,
        "ko": 8
    },
    "minResponseTime": {
        "total": 842,
        "ok": 842,
        "ko": 15849
    },
    "maxResponseTime": {
        "total": 61212,
        "ok": 33030,
        "ko": 61212
    },
    "meanResponseTime": {
        "total": 2038,
        "ok": 2016,
        "ko": 23460
    },
    "standardDeviation": {
        "total": 1791,
        "ok": 1595,
        "ko": 14372
    },
    "percentiles1": {
        "total": 1385,
        "ok": 1385,
        "ko": 17734
    },
    "percentiles2": {
        "total": 2584,
        "ok": 2583,
        "ko": 20788
    },
    "percentiles3": {
        "total": 4858,
        "ok": 4836,
        "ko": 47074
    },
    "percentiles4": {
        "total": 8112,
        "ok": 8043,
        "ko": 58384
    },
    "group1": {
    "name": "t < 800 ms",
    "count": 0,
    "percentage": 0
},
    "group2": {
    "name": "800 ms < t < 1200 ms",
    "count": 2735,
    "percentage": 34
},
    "group3": {
    "name": "t > 1200 ms",
    "count": 5257,
    "percentage": 66
},
    "group4": {
    "name": "failed",
    "count": 8,
    "percentage": 0
},
    "meanNumberOfRequestsPerSecond": {
        "total": 4.828002414001207,
        "ok": 4.823174411587206,
        "ko": 0.004828002414001207
    }
}
    },"req_siette--abrir-s-ec7da": {
        "type": "REQUEST",
        "name": "Siette> Abrir Siette Redirect 1",
"path": "Siette> Abrir Siette Redirect 1",
"pathFormatted": "req_siette--abrir-s-ec7da",
"stats": {
    "name": "Siette> Abrir Siette Redirect 1",
    "numberOfRequests": {
        "total": 7992,
        "ok": 7992,
        "ko": 0
    },
    "minResponseTime": {
        "total": 210,
        "ok": 210,
        "ko": 0
    },
    "maxResponseTime": {
        "total": 16781,
        "ok": 16781,
        "ko": 0
    },
    "meanResponseTime": {
        "total": 307,
        "ok": 307,
        "ko": 0
    },
    "standardDeviation": {
        "total": 460,
        "ok": 460,
        "ko": 0
    },
    "percentiles1": {
        "total": 214,
        "ok": 214,
        "ko": 0
    },
    "percentiles2": {
        "total": 216,
        "ok": 216,
        "ko": 0
    },
    "percentiles3": {
        "total": 738,
        "ok": 738,
        "ko": 0
    },
    "percentiles4": {
        "total": 1707,
        "ok": 1707,
        "ko": 0
    },
    "group1": {
    "name": "t < 800 ms",
    "count": 7750,
    "percentage": 97
},
    "group2": {
    "name": "800 ms < t < 1200 ms",
    "count": 14,
    "percentage": 0
},
    "group3": {
    "name": "t > 1200 ms",
    "count": 228,
    "percentage": 3
},
    "group4": {
    "name": "failed",
    "count": 0,
    "percentage": 0
},
    "meanNumberOfRequestsPerSecond": {
        "total": 4.823174411587206,
        "ok": 4.823174411587206,
        "ko": 0
    }
}
    },"req_siette--abrir-s-af03c": {
        "type": "REQUEST",
        "name": "Siette> Abrir Siette Redirect 2",
"path": "Siette> Abrir Siette Redirect 2",
"pathFormatted": "req_siette--abrir-s-af03c",
"stats": {
    "name": "Siette> Abrir Siette Redirect 2",
    "numberOfRequests": {
        "total": 7992,
        "ok": 7992,
        "ko": 0
    },
    "minResponseTime": {
        "total": 210,
        "ok": 210,
        "ko": 0
    },
    "maxResponseTime": {
        "total": 16648,
        "ok": 16648,
        "ko": 0
    },
    "meanResponseTime": {
        "total": 300,
        "ok": 300,
        "ko": 0
    },
    "standardDeviation": {
        "total": 427,
        "ok": 427,
        "ko": 0
    },
    "percentiles1": {
        "total": 214,
        "ok": 214,
        "ko": 0
    },
    "percentiles2": {
        "total": 216,
        "ok": 216,
        "ko": 0
    },
    "percentiles3": {
        "total": 730,
        "ok": 730,
        "ko": 0
    },
    "percentiles4": {
        "total": 1269,
        "ok": 1269,
        "ko": 0
    },
    "group1": {
    "name": "t < 800 ms",
    "count": 7771,
    "percentage": 97
},
    "group2": {
    "name": "800 ms < t < 1200 ms",
    "count": 49,
    "percentage": 1
},
    "group3": {
    "name": "t > 1200 ms",
    "count": 172,
    "percentage": 2
},
    "group4": {
    "name": "failed",
    "count": 0,
    "percentage": 0
},
    "meanNumberOfRequestsPerSecond": {
        "total": 4.823174411587206,
        "ok": 4.823174411587206,
        "ko": 0
    }
}
    },"req_siette--abrir-s-bf59e": {
        "type": "REQUEST",
        "name": "Siette> Abrir Siette Redirect 3",
"path": "Siette> Abrir Siette Redirect 3",
"pathFormatted": "req_siette--abrir-s-bf59e",
"stats": {
    "name": "Siette> Abrir Siette Redirect 3",
    "numberOfRequests": {
        "total": 7992,
        "ok": 7992,
        "ko": 0
    },
    "minResponseTime": {
        "total": 215,
        "ok": 215,
        "ko": 0
    },
    "maxResponseTime": {
        "total": 60193,
        "ok": 60193,
        "ko": 0
    },
    "meanResponseTime": {
        "total": 1587,
        "ok": 1587,
        "ko": 0
    },
    "standardDeviation": {
        "total": 1782,
        "ok": 1782,
        "ko": 0
    },
    "percentiles1": {
        "total": 1141,
        "ok": 1141,
        "ko": 0
    },
    "percentiles2": {
        "total": 2017,
        "ok": 2017,
        "ko": 0
    },
    "percentiles3": {
        "total": 4436,
        "ok": 4436,
        "ko": 0
    },
    "percentiles4": {
        "total": 7839,
        "ok": 7839,
        "ko": 0
    },
    "group1": {
    "name": "t < 800 ms",
    "count": 2558,
    "percentage": 32
},
    "group2": {
    "name": "800 ms < t < 1200 ms",
    "count": 1555,
    "percentage": 19
},
    "group3": {
    "name": "t > 1200 ms",
    "count": 3879,
    "percentage": 49
},
    "group4": {
    "name": "failed",
    "count": 0,
    "percentage": 0
},
    "meanNumberOfRequestsPerSecond": {
        "total": 4.823174411587206,
        "ok": 4.823174411587206,
        "ko": 0
    }
}
    },"req_siette--login-a-00c34": {
        "type": "REQUEST",
        "name": "Siette> Login Action",
"path": "Siette> Login Action",
"pathFormatted": "req_siette--login-a-00c34",
"stats": {
    "name": "Siette> Login Action",
    "numberOfRequests": {
        "total": 8000,
        "ok": 7998,
        "ko": 2
    },
    "minResponseTime": {
        "total": 300,
        "ok": 300,
        "ko": 16486
    },
    "maxResponseTime": {
        "total": 315616,
        "ok": 315616,
        "ko": 17772
    },
    "meanResponseTime": {
        "total": 1771,
        "ok": 1768,
        "ko": 17129
    },
    "standardDeviation": {
        "total": 5007,
        "ok": 5001,
        "ko": 643
    },
    "percentiles1": {
        "total": 963,
        "ok": 963,
        "ko": 17129
    },
    "percentiles2": {
        "total": 2183,
        "ok": 2183,
        "ko": 17451
    },
    "percentiles3": {
        "total": 5134,
        "ok": 5117,
        "ko": 17708
    },
    "percentiles4": {
        "total": 11121,
        "ok": 11022,
        "ko": 17759
    },
    "group1": {
    "name": "t < 800 ms",
    "count": 3441,
    "percentage": 43
},
    "group2": {
    "name": "800 ms < t < 1200 ms",
    "count": 1182,
    "percentage": 15
},
    "group3": {
    "name": "t > 1200 ms",
    "count": 3375,
    "percentage": 42
},
    "group4": {
    "name": "failed",
    "count": 2,
    "percentage": 0
},
    "meanNumberOfRequestsPerSecond": {
        "total": 4.828002414001207,
        "ok": 4.826795413397707,
        "ko": 0.0012070006035003018
    }
}
    },"req_siette--login-a-dbf55": {
        "type": "REQUEST",
        "name": "Siette> Login Action Redirect 1",
"path": "Siette> Login Action Redirect 1",
"pathFormatted": "req_siette--login-a-dbf55",
"stats": {
    "name": "Siette> Login Action Redirect 1",
    "numberOfRequests": {
        "total": 7998,
        "ok": 7997,
        "ko": 1
    },
    "minResponseTime": {
        "total": 219,
        "ok": 219,
        "ko": 320000
    },
    "maxResponseTime": {
        "total": 320000,
        "ok": 67469,
        "ko": 320000
    },
    "meanResponseTime": {
        "total": 1750,
        "ok": 1710,
        "ko": 320000
    },
    "standardDeviation": {
        "total": 4268,
        "ok": 2356,
        "ko": 0
    },
    "percentiles1": {
        "total": 1216,
        "ok": 1215,
        "ko": 320000
    },
    "percentiles2": {
        "total": 2179,
        "ok": 2179,
        "ko": 320000
    },
    "percentiles3": {
        "total": 4587,
        "ok": 4581,
        "ko": 320000
    },
    "percentiles4": {
        "total": 8722,
        "ok": 8701,
        "ko": 320000
    },
    "group1": {
    "name": "t < 800 ms",
    "count": 2520,
    "percentage": 32
},
    "group2": {
    "name": "800 ms < t < 1200 ms",
    "count": 1466,
    "percentage": 18
},
    "group3": {
    "name": "t > 1200 ms",
    "count": 4011,
    "percentage": 50
},
    "group4": {
    "name": "failed",
    "count": 1,
    "percentage": 0
},
    "meanNumberOfRequestsPerSecond": {
        "total": 4.826795413397707,
        "ok": 4.826191913095957,
        "ko": 6.035003017501509E-4
    }
}
    },"req_siette--mis-nex-a6db5": {
        "type": "REQUEST",
        "name": "Siette> Mis Next TEST",
"path": "Siette> Mis Next TEST",
"pathFormatted": "req_siette--mis-nex-a6db5",
"stats": {
    "name": "Siette> Mis Next TEST",
    "numberOfRequests": {
        "total": 8000,
        "ok": 7994,
        "ko": 6
    },
    "minResponseTime": {
        "total": 489,
        "ok": 489,
        "ko": 16592
    },
    "maxResponseTime": {
        "total": 245049,
        "ok": 245049,
        "ko": 130097
    },
    "meanResponseTime": {
        "total": 3035,
        "ok": 3010,
        "ko": 37311
    },
    "standardDeviation": {
        "total": 5266,
        "ok": 5057,
        "ko": 41549
    },
    "percentiles1": {
        "total": 1935,
        "ok": 1933,
        "ko": 18918
    },
    "percentiles2": {
        "total": 3610,
        "ok": 3605,
        "ko": 21904
    },
    "percentiles3": {
        "total": 8102,
        "ok": 8074,
        "ko": 103144
    },
    "percentiles4": {
        "total": 16592,
        "ok": 16032,
        "ko": 124706
    },
    "group1": {
    "name": "t < 800 ms",
    "count": 1291,
    "percentage": 16
},
    "group2": {
    "name": "800 ms < t < 1200 ms",
    "count": 1124,
    "percentage": 14
},
    "group3": {
    "name": "t > 1200 ms",
    "count": 5579,
    "percentage": 70
},
    "group4": {
    "name": "failed",
    "count": 6,
    "percentage": 0
},
    "meanNumberOfRequestsPerSecond": {
        "total": 4.828002414001207,
        "ok": 4.824381412190706,
        "ko": 0.003621001810500905
    }
}
    },"req_siette--abrir-s-af6c1": {
        "type": "REQUEST",
        "name": "Siette> Abrir selección de test CONCURRENCIA - TEST DE PRUEBA - C",
"path": "Siette> Abrir selección de test CONCURRENCIA - TEST DE PRUEBA - C",
"pathFormatted": "req_siette--abrir-s-af6c1",
"stats": {
    "name": "Siette> Abrir selección de test CONCURRENCIA - TEST DE PRUEBA - C",
    "numberOfRequests": {
        "total": 7992,
        "ok": 7989,
        "ko": 3
    },
    "minResponseTime": {
        "total": 302,
        "ok": 302,
        "ko": 16494
    },
    "maxResponseTime": {
        "total": 132438,
        "ok": 132438,
        "ko": 48849
    },
    "meanResponseTime": {
        "total": 1378,
        "ok": 1366,
        "ko": 31084
    },
    "standardDeviation": {
        "total": 3912,
        "ok": 3862,
        "ko": 13398
    },
    "percentiles1": {
        "total": 387,
        "ok": 387,
        "ko": 27908
    },
    "percentiles2": {
        "total": 1369,
        "ok": 1367,
        "ko": 38379
    },
    "percentiles3": {
        "total": 4583,
        "ok": 4565,
        "ko": 46755
    },
    "percentiles4": {
        "total": 11017,
        "ok": 10681,
        "ko": 48430
    },
    "group1": {
    "name": "t < 800 ms",
    "count": 4985,
    "percentage": 62
},
    "group2": {
    "name": "800 ms < t < 1200 ms",
    "count": 879,
    "percentage": 11
},
    "group3": {
    "name": "t > 1200 ms",
    "count": 2125,
    "percentage": 27
},
    "group4": {
    "name": "failed",
    "count": 3,
    "percentage": 0
},
    "meanNumberOfRequestsPerSecond": {
        "total": 4.823174411587206,
        "ok": 4.8213639106819555,
        "ko": 0.0018105009052504525
    }
}
    },"req_siette--abrir-s-369a9": {
        "type": "REQUEST",
        "name": "Siette> Abrir selección de test CONCURRENCIA - TEST DE PRUEBA - C Redirect 1",
"path": "Siette> Abrir selección de test CONCURRENCIA - TEST DE PRUEBA - C Redirect 1",
"pathFormatted": "req_siette--abrir-s-369a9",
"stats": {
    "name": "Siette> Abrir selección de test CONCURRENCIA - TEST DE PRUEBA - C Redirect 1",
    "numberOfRequests": {
        "total": 7989,
        "ok": 7989,
        "ko": 0
    },
    "minResponseTime": {
        "total": 646,
        "ok": 646,
        "ko": 0
    },
    "maxResponseTime": {
        "total": 65337,
        "ok": 65337,
        "ko": 0
    },
    "meanResponseTime": {
        "total": 2274,
        "ok": 2274,
        "ko": 0
    },
    "standardDeviation": {
        "total": 2416,
        "ok": 2416,
        "ko": 0
    },
    "percentiles1": {
        "total": 1722,
        "ok": 1722,
        "ko": 0
    },
    "percentiles2": {
        "total": 2745,
        "ok": 2745,
        "ko": 0
    },
    "percentiles3": {
        "total": 5367,
        "ok": 5367,
        "ko": 0
    },
    "percentiles4": {
        "total": 9905,
        "ok": 9905,
        "ko": 0
    },
    "group1": {
    "name": "t < 800 ms",
    "count": 1158,
    "percentage": 14
},
    "group2": {
    "name": "800 ms < t < 1200 ms",
    "count": 1541,
    "percentage": 19
},
    "group3": {
    "name": "t > 1200 ms",
    "count": 5290,
    "percentage": 66
},
    "group4": {
    "name": "failed",
    "count": 0,
    "percentage": 0
},
    "meanNumberOfRequestsPerSecond": {
        "total": 4.8213639106819555,
        "ok": 4.8213639106819555,
        "ko": 0
    }
}
    },"req_siette--confirm-cc106": {
        "type": "REQUEST",
        "name": "Siette> Confirmar selección de test CONCURRENCIA - TEST DE PRUEBA - C",
"path": "Siette> Confirmar selección de test CONCURRENCIA - TEST DE PRUEBA - C",
"pathFormatted": "req_siette--confirm-cc106",
"stats": {
    "name": "Siette> Confirmar selección de test CONCURRENCIA - TEST DE PRUEBA - C",
    "numberOfRequests": {
        "total": 7992,
        "ok": 7978,
        "ko": 14
    },
    "minResponseTime": {
        "total": 435,
        "ok": 435,
        "ko": 20839
    },
    "maxResponseTime": {
        "total": 320001,
        "ok": 186764,
        "ko": 320001
    },
    "meanResponseTime": {
        "total": 5211,
        "ok": 5006,
        "ko": 121939
    },
    "standardDeviation": {
        "total": 8834,
        "ok": 5755,
        "ko": 109682
    },
    "percentiles1": {
        "total": 3709,
        "ok": 3700,
        "ko": 60713
    },
    "percentiles2": {
        "total": 6421,
        "ok": 6394,
        "ko": 130925
    },
    "percentiles3": {
        "total": 12806,
        "ok": 12618,
        "ko": 320000
    },
    "percentiles4": {
        "total": 24661,
        "ok": 21735,
        "ko": 320001
    },
    "group1": {
    "name": "t < 800 ms",
    "count": 459,
    "percentage": 6
},
    "group2": {
    "name": "800 ms < t < 1200 ms",
    "count": 368,
    "percentage": 5
},
    "group3": {
    "name": "t > 1200 ms",
    "count": 7151,
    "percentage": 89
},
    "group4": {
    "name": "failed",
    "count": 14,
    "percentage": 0
},
    "meanNumberOfRequestsPerSecond": {
        "total": 4.823174411587206,
        "ok": 4.814725407362704,
        "ko": 0.008449004224502113
    }
}
    },"req_p1-ec6ef": {
        "type": "REQUEST",
        "name": "p1",
"path": "p1",
"pathFormatted": "req_p1-ec6ef",
"stats": {
    "name": "p1",
    "numberOfRequests": {
        "total": 7992,
        "ok": 7981,
        "ko": 11
    },
    "minResponseTime": {
        "total": 218,
        "ok": 218,
        "ko": 16756
    },
    "maxResponseTime": {
        "total": 320001,
        "ok": 267792,
        "ko": 320001
    },
    "meanResponseTime": {
        "total": 4532,
        "ok": 4339,
        "ko": 144382
    },
    "standardDeviation": {
        "total": 9446,
        "ok": 6065,
        "ko": 136218
    },
    "percentiles1": {
        "total": 3071,
        "ok": 3067,
        "ko": 60211
    },
    "percentiles2": {
        "total": 5404,
        "ok": 5389,
        "ko": 320000
    },
    "percentiles3": {
        "total": 11282,
        "ok": 11181,
        "ko": 320001
    },
    "percentiles4": {
        "total": 20539,
        "ok": 19782,
        "ko": 320001
    },
    "group1": {
    "name": "t < 800 ms",
    "count": 471,
    "percentage": 6
},
    "group2": {
    "name": "800 ms < t < 1200 ms",
    "count": 595,
    "percentage": 7
},
    "group3": {
    "name": "t > 1200 ms",
    "count": 6915,
    "percentage": 87
},
    "group4": {
    "name": "failed",
    "count": 11,
    "percentage": 0
},
    "meanNumberOfRequestsPerSecond": {
        "total": 4.823174411587206,
        "ok": 4.816535908267954,
        "ko": 0.006638503319251659
    }
}
    },"req_p2-1d665": {
        "type": "REQUEST",
        "name": "p2",
"path": "p2",
"pathFormatted": "req_p2-1d665",
"stats": {
    "name": "p2",
    "numberOfRequests": {
        "total": 7992,
        "ok": 7984,
        "ko": 8
    },
    "minResponseTime": {
        "total": 433,
        "ok": 433,
        "ko": 17087
    },
    "maxResponseTime": {
        "total": 320005,
        "ok": 99065,
        "ko": 320005
    },
    "meanResponseTime": {
        "total": 4763,
        "ok": 4655,
        "ko": 112793
    },
    "standardDeviation": {
        "total": 6917,
        "ok": 4535,
        "ko": 124876
    },
    "percentiles1": {
        "total": 3394,
        "ok": 3392,
        "ko": 39660
    },
    "percentiles2": {
        "total": 5968,
        "ok": 5957,
        "ko": 177157
    },
    "percentiles3": {
        "total": 12192,
        "ok": 12105,
        "ko": 320003
    },
    "percentiles4": {
        "total": 20579,
        "ok": 20308,
        "ko": 320005
    },
    "group1": {
    "name": "t < 800 ms",
    "count": 350,
    "percentage": 4
},
    "group2": {
    "name": "800 ms < t < 1200 ms",
    "count": 441,
    "percentage": 6
},
    "group3": {
    "name": "t > 1200 ms",
    "count": 7193,
    "percentage": 90
},
    "group4": {
    "name": "failed",
    "count": 8,
    "percentage": 0
},
    "meanNumberOfRequestsPerSecond": {
        "total": 4.823174411587206,
        "ok": 4.818346409173205,
        "ko": 0.004828002414001207
    }
}
    },"req_p3-7bc3c": {
        "type": "REQUEST",
        "name": "p3",
"path": "p3",
"pathFormatted": "req_p3-7bc3c",
"stats": {
    "name": "p3",
    "numberOfRequests": {
        "total": 7992,
        "ok": 7956,
        "ko": 36
    },
    "minResponseTime": {
        "total": 371,
        "ok": 431,
        "ko": 371
    },
    "maxResponseTime": {
        "total": 320214,
        "ok": 276346,
        "ko": 320214
    },
    "meanResponseTime": {
        "total": 3980,
        "ok": 3944,
        "ko": 11924
    },
    "standardDeviation": {
        "total": 6782,
        "ok": 5794,
        "ko": 52218
    },
    "percentiles1": {
        "total": 2779,
        "ok": 2780,
        "ko": 1604
    },
    "percentiles2": {
        "total": 4666,
        "ok": 4667,
        "ko": 3994
    },
    "percentiles3": {
        "total": 10341,
        "ok": 10338,
        "ko": 11402
    },
    "percentiles4": {
        "total": 20293,
        "ok": 20267,
        "ko": 214116
    },
    "group1": {
    "name": "t < 800 ms",
    "count": 428,
    "percentage": 5
},
    "group2": {
    "name": "800 ms < t < 1200 ms",
    "count": 861,
    "percentage": 11
},
    "group3": {
    "name": "t > 1200 ms",
    "count": 6667,
    "percentage": 83
},
    "group4": {
    "name": "failed",
    "count": 36,
    "percentage": 0
},
    "meanNumberOfRequestsPerSecond": {
        "total": 4.823174411587206,
        "ok": 4.8014484007242,
        "ko": 0.02172601086300543
    }
}
    },"req_p4-13207": {
        "type": "REQUEST",
        "name": "p4",
"path": "p4",
"pathFormatted": "req_p4-13207",
"stats": {
    "name": "p4",
    "numberOfRequests": {
        "total": 7992,
        "ok": 7977,
        "ko": 15
    },
    "minResponseTime": {
        "total": 217,
        "ok": 217,
        "ko": 15842
    },
    "maxResponseTime": {
        "total": 320001,
        "ok": 93613,
        "ko": 320001
    },
    "meanResponseTime": {
        "total": 5415,
        "ok": 5215,
        "ko": 111488
    },
    "standardDeviation": {
        "total": 8804,
        "ok": 5021,
        "ko": 128923
    },
    "percentiles1": {
        "total": 3984,
        "ok": 3971,
        "ko": 39763
    },
    "percentiles2": {
        "total": 6819,
        "ok": 6805,
        "ko": 225191
    },
    "percentiles3": {
        "total": 13553,
        "ok": 13465,
        "ko": 320000
    },
    "percentiles4": {
        "total": 23216,
        "ok": 22776,
        "ko": 320001
    },
    "group1": {
    "name": "t < 800 ms",
    "count": 360,
    "percentage": 5
},
    "group2": {
    "name": "800 ms < t < 1200 ms",
    "count": 321,
    "percentage": 4
},
    "group3": {
    "name": "t > 1200 ms",
    "count": 7296,
    "percentage": 91
},
    "group4": {
    "name": "failed",
    "count": 15,
    "percentage": 0
},
    "meanNumberOfRequestsPerSecond": {
        "total": 4.823174411587206,
        "ok": 4.8141219070609536,
        "ko": 0.009052504526252263
    }
}
    },"req_p5-ed92e": {
        "type": "REQUEST",
        "name": "p5",
"path": "p5",
"pathFormatted": "req_p5-ed92e",
"stats": {
    "name": "p5",
    "numberOfRequests": {
        "total": 7992,
        "ok": 7985,
        "ko": 7
    },
    "minResponseTime": {
        "total": 217,
        "ok": 217,
        "ko": 16084
    },
    "maxResponseTime": {
        "total": 320001,
        "ok": 71068,
        "ko": 320001
    },
    "meanResponseTime": {
        "total": 4423,
        "ok": 4353,
        "ko": 83749
    },
    "standardDeviation": {
        "total": 5738,
        "ok": 4243,
        "ko": 103693
    },
    "percentiles1": {
        "total": 3179,
        "ok": 3174,
        "ko": 25594
    },
    "percentiles2": {
        "total": 5613,
        "ok": 5606,
        "ko": 95024
    },
    "percentiles3": {
        "total": 11680,
        "ok": 11648,
        "ko": 262888
    },
    "percentiles4": {
        "total": 19903,
        "ok": 19666,
        "ko": 308578
    },
    "group1": {
    "name": "t < 800 ms",
    "count": 447,
    "percentage": 6
},
    "group2": {
    "name": "800 ms < t < 1200 ms",
    "count": 602,
    "percentage": 8
},
    "group3": {
    "name": "t > 1200 ms",
    "count": 6936,
    "percentage": 87
},
    "group4": {
    "name": "failed",
    "count": 7,
    "percentage": 0
},
    "meanNumberOfRequestsPerSecond": {
        "total": 4.823174411587206,
        "ok": 4.818949909474955,
        "ko": 0.004224502112251056
    }
}
    },"req_p6-c6c27": {
        "type": "REQUEST",
        "name": "p6",
"path": "p6",
"pathFormatted": "req_p6-c6c27",
"stats": {
    "name": "p6",
    "numberOfRequests": {
        "total": 7992,
        "ok": 7978,
        "ko": 14
    },
    "minResponseTime": {
        "total": 215,
        "ok": 215,
        "ko": 15850
    },
    "maxResponseTime": {
        "total": 320001,
        "ok": 142100,
        "ko": 320001
    },
    "meanResponseTime": {
        "total": 4404,
        "ok": 4240,
        "ko": 97984
    },
    "standardDeviation": {
        "total": 7873,
        "ok": 4659,
        "ko": 119325
    },
    "percentiles1": {
        "total": 3033,
        "ok": 3029,
        "ko": 32949
    },
    "percentiles2": {
        "total": 5426,
        "ok": 5402,
        "ko": 110437
    },
    "percentiles3": {
        "total": 11233,
        "ok": 11127,
        "ko": 320000
    },
    "percentiles4": {
        "total": 20345,
        "ok": 19412,
        "ko": 320001
    },
    "group1": {
    "name": "t < 800 ms",
    "count": 411,
    "percentage": 5
},
    "group2": {
    "name": "800 ms < t < 1200 ms",
    "count": 700,
    "percentage": 9
},
    "group3": {
    "name": "t > 1200 ms",
    "count": 6867,
    "percentage": 86
},
    "group4": {
    "name": "failed",
    "count": 14,
    "percentage": 0
},
    "meanNumberOfRequestsPerSecond": {
        "total": 4.823174411587206,
        "ok": 4.814725407362704,
        "ko": 0.008449004224502113
    }
}
    },"req_p7-46d46": {
        "type": "REQUEST",
        "name": "p7",
"path": "p7",
"pathFormatted": "req_p7-46d46",
"stats": {
    "name": "p7",
    "numberOfRequests": {
        "total": 7992,
        "ok": 7976,
        "ko": 16
    },
    "minResponseTime": {
        "total": 217,
        "ok": 217,
        "ko": 19602
    },
    "maxResponseTime": {
        "total": 320002,
        "ok": 84354,
        "ko": 320002
    },
    "meanResponseTime": {
        "total": 4742,
        "ok": 4397,
        "ko": 176814
    },
    "standardDeviation": {
        "total": 11002,
        "ok": 4514,
        "ko": 143658
    },
    "percentiles1": {
        "total": 3165,
        "ok": 3160,
        "ko": 190214
    },
    "percentiles2": {
        "total": 5574,
        "ok": 5558,
        "ko": 320000
    },
    "percentiles3": {
        "total": 11857,
        "ok": 11734,
        "ko": 320001
    },
    "percentiles4": {
        "total": 21449,
        "ok": 20232,
        "ko": 320002
    },
    "group1": {
    "name": "t < 800 ms",
    "count": 391,
    "percentage": 5
},
    "group2": {
    "name": "800 ms < t < 1200 ms",
    "count": 580,
    "percentage": 7
},
    "group3": {
    "name": "t > 1200 ms",
    "count": 7005,
    "percentage": 88
},
    "group4": {
    "name": "failed",
    "count": 16,
    "percentage": 0
},
    "meanNumberOfRequestsPerSecond": {
        "total": 4.823174411587206,
        "ok": 4.813518406759203,
        "ko": 0.009656004828002414
    }
}
    },"req_p8-2e3f2": {
        "type": "REQUEST",
        "name": "p8",
"path": "p8",
"pathFormatted": "req_p8-2e3f2",
"stats": {
    "name": "p8",
    "numberOfRequests": {
        "total": 7992,
        "ok": 7978,
        "ko": 14
    },
    "minResponseTime": {
        "total": 223,
        "ok": 223,
        "ko": 15849
    },
    "maxResponseTime": {
        "total": 320001,
        "ok": 78234,
        "ko": 320001
    },
    "meanResponseTime": {
        "total": 4603,
        "ok": 4368,
        "ko": 138281
    },
    "standardDeviation": {
        "total": 9188,
        "ok": 4413,
        "ko": 138533
    },
    "percentiles1": {
        "total": 3080,
        "ok": 3074,
        "ko": 49139
    },
    "percentiles2": {
        "total": 5470,
        "ok": 5452,
        "ko": 320000
    },
    "percentiles3": {
        "total": 11990,
        "ok": 11894,
        "ko": 320001
    },
    "percentiles4": {
        "total": 20790,
        "ok": 20386,
        "ko": 320001
    },
    "group1": {
    "name": "t < 800 ms",
    "count": 363,
    "percentage": 5
},
    "group2": {
    "name": "800 ms < t < 1200 ms",
    "count": 568,
    "percentage": 7
},
    "group3": {
    "name": "t > 1200 ms",
    "count": 7047,
    "percentage": 88
},
    "group4": {
    "name": "failed",
    "count": 14,
    "percentage": 0
},
    "meanNumberOfRequestsPerSecond": {
        "total": 4.823174411587206,
        "ok": 4.814725407362704,
        "ko": 0.008449004224502113
    }
}
    },"req_p9-d9a9d": {
        "type": "REQUEST",
        "name": "p9",
"path": "p9",
"pathFormatted": "req_p9-d9a9d",
"stats": {
    "name": "p9",
    "numberOfRequests": {
        "total": 7992,
        "ok": 7981,
        "ko": 11
    },
    "minResponseTime": {
        "total": 222,
        "ok": 222,
        "ko": 16589
    },
    "maxResponseTime": {
        "total": 324782,
        "ok": 68386,
        "ko": 324782
    },
    "meanResponseTime": {
        "total": 4479,
        "ok": 4323,
        "ko": 118365
    },
    "standardDeviation": {
        "total": 7590,
        "ok": 4146,
        "ko": 128070
    },
    "percentiles1": {
        "total": 3144,
        "ok": 3135,
        "ko": 44015
    },
    "percentiles2": {
        "total": 5575,
        "ok": 5561,
        "ko": 225117
    },
    "percentiles3": {
        "total": 11478,
        "ok": 11330,
        "ko": 322511
    },
    "percentiles4": {
        "total": 20635,
        "ok": 20022,
        "ko": 324328
    },
    "group1": {
    "name": "t < 800 ms",
    "count": 362,
    "percentage": 5
},
    "group2": {
    "name": "800 ms < t < 1200 ms",
    "count": 578,
    "percentage": 7
},
    "group3": {
    "name": "t > 1200 ms",
    "count": 7041,
    "percentage": 88
},
    "group4": {
    "name": "failed",
    "count": 11,
    "percentage": 0
},
    "meanNumberOfRequestsPerSecond": {
        "total": 4.823174411587206,
        "ok": 4.816535908267954,
        "ko": 0.006638503319251659
    }
}
    },"req_p10-ad304": {
        "type": "REQUEST",
        "name": "p10",
"path": "p10",
"pathFormatted": "req_p10-ad304",
"stats": {
    "name": "p10",
    "numberOfRequests": {
        "total": 7992,
        "ok": 7982,
        "ko": 10
    },
    "minResponseTime": {
        "total": 220,
        "ok": 220,
        "ko": 15852
    },
    "maxResponseTime": {
        "total": 320001,
        "ok": 75476,
        "ko": 320001
    },
    "meanResponseTime": {
        "total": 4582,
        "ok": 4394,
        "ko": 154103
    },
    "standardDeviation": {
        "total": 8619,
        "ok": 4707,
        "ko": 138947
    },
    "percentiles1": {
        "total": 3151,
        "ok": 3145,
        "ko": 86213
    },
    "percentiles2": {
        "total": 5475,
        "ok": 5466,
        "ko": 320000
    },
    "percentiles3": {
        "total": 11864,
        "ok": 11771,
        "ko": 320001
    },
    "percentiles4": {
        "total": 21157,
        "ok": 20310,
        "ko": 320001
    },
    "group1": {
    "name": "t < 800 ms",
    "count": 384,
    "percentage": 5
},
    "group2": {
    "name": "800 ms < t < 1200 ms",
    "count": 595,
    "percentage": 7
},
    "group3": {
    "name": "t > 1200 ms",
    "count": 7003,
    "percentage": 88
},
    "group4": {
    "name": "failed",
    "count": 10,
    "percentage": 0
},
    "meanNumberOfRequestsPerSecond": {
        "total": 4.823174411587206,
        "ok": 4.817139408569704,
        "ko": 0.006035003017501509
    }
}
    },"req_p11-52053": {
        "type": "REQUEST",
        "name": "p11",
"path": "p11",
"pathFormatted": "req_p11-52053",
"stats": {
    "name": "p11",
    "numberOfRequests": {
        "total": 7992,
        "ok": 7986,
        "ko": 6
    },
    "minResponseTime": {
        "total": 219,
        "ok": 219,
        "ko": 16494
    },
    "maxResponseTime": {
        "total": 320001,
        "ok": 86130,
        "ko": 320001
    },
    "meanResponseTime": {
        "total": 4410,
        "ok": 4357,
        "ko": 75119
    },
    "standardDeviation": {
        "total": 5833,
        "ok": 4606,
        "ko": 109947
    },
    "percentiles1": {
        "total": 3094,
        "ok": 3091,
        "ko": 24842
    },
    "percentiles2": {
        "total": 5486,
        "ok": 5479,
        "ko": 41461
    },
    "percentiles3": {
        "total": 11576,
        "ok": 11518,
        "ko": 251532
    },
    "percentiles4": {
        "total": 21504,
        "ok": 21112,
        "ko": 306307
    },
    "group1": {
    "name": "t < 800 ms",
    "count": 377,
    "percentage": 5
},
    "group2": {
    "name": "800 ms < t < 1200 ms",
    "count": 598,
    "percentage": 7
},
    "group3": {
    "name": "t > 1200 ms",
    "count": 7011,
    "percentage": 88
},
    "group4": {
    "name": "failed",
    "count": 6,
    "percentage": 0
},
    "meanNumberOfRequestsPerSecond": {
        "total": 4.823174411587206,
        "ok": 4.819553409776705,
        "ko": 0.003621001810500905
    }
}
    },"req_p12-d3d07": {
        "type": "REQUEST",
        "name": "p12",
"path": "p12",
"pathFormatted": "req_p12-d3d07",
"stats": {
    "name": "p12",
    "numberOfRequests": {
        "total": 7992,
        "ok": 7988,
        "ko": 4
    },
    "minResponseTime": {
        "total": 219,
        "ok": 219,
        "ko": 18646
    },
    "maxResponseTime": {
        "total": 320002,
        "ok": 81614,
        "ko": 320002
    },
    "meanResponseTime": {
        "total": 4379,
        "ok": 4293,
        "ko": 175680
    },
    "standardDeviation": {
        "total": 6653,
        "ok": 4372,
        "ko": 144601
    },
    "percentiles1": {
        "total": 3073,
        "ok": 3071,
        "ko": 182035
    },
    "percentiles2": {
        "total": 5485,
        "ok": 5479,
        "ko": 320001
    },
    "percentiles3": {
        "total": 11464,
        "ok": 11416,
        "ko": 320002
    },
    "percentiles4": {
        "total": 19556,
        "ok": 19099,
        "ko": 320002
    },
    "group1": {
    "name": "t < 800 ms",
    "count": 373,
    "percentage": 5
},
    "group2": {
    "name": "800 ms < t < 1200 ms",
    "count": 614,
    "percentage": 8
},
    "group3": {
    "name": "t > 1200 ms",
    "count": 7001,
    "percentage": 88
},
    "group4": {
    "name": "failed",
    "count": 4,
    "percentage": 0
},
    "meanNumberOfRequestsPerSecond": {
        "total": 4.823174411587206,
        "ok": 4.820760410380205,
        "ko": 0.0024140012070006035
    }
}
    },"req_p13-f4fc7": {
        "type": "REQUEST",
        "name": "p13",
"path": "p13",
"pathFormatted": "req_p13-f4fc7",
"stats": {
    "name": "p13",
    "numberOfRequests": {
        "total": 7992,
        "ok": 7984,
        "ko": 8
    },
    "minResponseTime": {
        "total": 219,
        "ok": 219,
        "ko": 16589
    },
    "maxResponseTime": {
        "total": 320001,
        "ok": 79500,
        "ko": 320001
    },
    "meanResponseTime": {
        "total": 4493,
        "ok": 4277,
        "ko": 220345
    },
    "standardDeviation": {
        "total": 9116,
        "ok": 4335,
        "ko": 132724
    },
    "percentiles1": {
        "total": 3038,
        "ok": 3035,
        "ko": 320000
    },
    "percentiles2": {
        "total": 5413,
        "ok": 5397,
        "ko": 320001
    },
    "percentiles3": {
        "total": 11487,
        "ok": 11429,
        "ko": 320001
    },
    "percentiles4": {
        "total": 20684,
        "ok": 20054,
        "ko": 320001
    },
    "group1": {
    "name": "t < 800 ms",
    "count": 374,
    "percentage": 5
},
    "group2": {
    "name": "800 ms < t < 1200 ms",
    "count": 608,
    "percentage": 8
},
    "group3": {
    "name": "t > 1200 ms",
    "count": 7002,
    "percentage": 88
},
    "group4": {
    "name": "failed",
    "count": 8,
    "percentage": 0
},
    "meanNumberOfRequestsPerSecond": {
        "total": 4.823174411587206,
        "ok": 4.818346409173205,
        "ko": 0.004828002414001207
    }
}
    },"req_p14-989ae": {
        "type": "REQUEST",
        "name": "p14",
"path": "p14",
"pathFormatted": "req_p14-989ae",
"stats": {
    "name": "p14",
    "numberOfRequests": {
        "total": 7992,
        "ok": 7984,
        "ko": 8
    },
    "minResponseTime": {
        "total": 221,
        "ok": 221,
        "ko": 15857
    },
    "maxResponseTime": {
        "total": 320213,
        "ok": 82694,
        "ko": 320213
    },
    "meanResponseTime": {
        "total": 6354,
        "ok": 6148,
        "ko": 212071
    },
    "standardDeviation": {
        "total": 9582,
        "ok": 5459,
        "ko": 140098
    },
    "percentiles1": {
        "total": 4709,
        "ok": 4705,
        "ko": 320000
    },
    "percentiles2": {
        "total": 8034,
        "ok": 8019,
        "ko": 320053
    },
    "percentiles3": {
        "total": 15455,
        "ok": 15358,
        "ko": 320212
    },
    "percentiles4": {
        "total": 25653,
        "ok": 25092,
        "ko": 320213
    },
    "group1": {
    "name": "t < 800 ms",
    "count": 258,
    "percentage": 3
},
    "group2": {
    "name": "800 ms < t < 1200 ms",
    "count": 149,
    "percentage": 2
},
    "group3": {
    "name": "t > 1200 ms",
    "count": 7577,
    "percentage": 95
},
    "group4": {
    "name": "failed",
    "count": 8,
    "percentage": 0
},
    "meanNumberOfRequestsPerSecond": {
        "total": 4.823174411587206,
        "ok": 4.818346409173205,
        "ko": 0.004828002414001207
    }
}
    },"req_pregunta--send--45f05": {
        "type": "REQUEST",
        "name": "pregunta, send empty 15",
"path": "pregunta, send empty 15",
"pathFormatted": "req_pregunta--send--45f05",
"stats": {
    "name": "pregunta, send empty 15",
    "numberOfRequests": {
        "total": 7992,
        "ok": 7987,
        "ko": 5
    },
    "minResponseTime": {
        "total": 218,
        "ok": 218,
        "ko": 17159
    },
    "maxResponseTime": {
        "total": 75809,
        "ok": 75809,
        "ko": 61213
    },
    "meanResponseTime": {
        "total": 3058,
        "ok": 3042,
        "ko": 28798
    },
    "standardDeviation": {
        "total": 3378,
        "ok": 3291,
        "ko": 16465
    },
    "percentiles1": {
        "total": 2017,
        "ok": 2016,
        "ko": 20311
    },
    "percentiles2": {
        "total": 4160,
        "ok": 4155,
        "ko": 25953
    },
    "percentiles3": {
        "total": 8402,
        "ok": 8368,
        "ko": 54161
    },
    "percentiles4": {
        "total": 14964,
        "ok": 14669,
        "ko": 59803
    },
    "group1": {
    "name": "t < 800 ms",
    "count": 1548,
    "percentage": 19
},
    "group2": {
    "name": "800 ms < t < 1200 ms",
    "count": 909,
    "percentage": 11
},
    "group3": {
    "name": "t > 1200 ms",
    "count": 5530,
    "percentage": 69
},
    "group4": {
    "name": "failed",
    "count": 5,
    "percentage": 0
},
    "meanNumberOfRequestsPerSecond": {
        "total": 4.823174411587206,
        "ok": 4.820156910078455,
        "ko": 0.0030175015087507543
    }
}
    },"req_siette--logout-81b63": {
        "type": "REQUEST",
        "name": "Siette> logout",
"path": "Siette> logout",
"pathFormatted": "req_siette--logout-81b63",
"stats": {
    "name": "Siette> logout",
    "numberOfRequests": {
        "total": 8000,
        "ok": 7989,
        "ko": 11
    },
    "minResponseTime": {
        "total": 210,
        "ok": 210,
        "ko": 15836
    },
    "maxResponseTime": {
        "total": 320612,
        "ok": 140743,
        "ko": 320612
    },
    "meanResponseTime": {
        "total": 1812,
        "ok": 1721,
        "ko": 68439
    },
    "standardDeviation": {
        "total": 4938,
        "ok": 2868,
        "ko": 85520
    },
    "percentiles1": {
        "total": 1355,
        "ok": 1347,
        "ko": 41575
    },
    "percentiles2": {
        "total": 2228,
        "ok": 2225,
        "ko": 52861
    },
    "percentiles3": {
        "total": 4773,
        "ok": 4691,
        "ko": 225643
    },
    "percentiles4": {
        "total": 10794,
        "ok": 10104,
        "ko": 301618
    },
    "group1": {
    "name": "t < 800 ms",
    "count": 2502,
    "percentage": 31
},
    "group2": {
    "name": "800 ms < t < 1200 ms",
    "count": 1447,
    "percentage": 18
},
    "group3": {
    "name": "t > 1200 ms",
    "count": 4040,
    "percentage": 51
},
    "group4": {
    "name": "failed",
    "count": 11,
    "percentage": 0
},
    "meanNumberOfRequestsPerSecond": {
        "total": 4.828002414001207,
        "ok": 4.8213639106819555,
        "ko": 0.006638503319251659
    }
}
    },"req_siette--logout--9e3a2": {
        "type": "REQUEST",
        "name": "Siette> logout Redirect 1",
"path": "Siette> logout Redirect 1",
"pathFormatted": "req_siette--logout--9e3a2",
"stats": {
    "name": "Siette> logout Redirect 1",
    "numberOfRequests": {
        "total": 7989,
        "ok": 7989,
        "ko": 0
    },
    "minResponseTime": {
        "total": 213,
        "ok": 213,
        "ko": 0
    },
    "maxResponseTime": {
        "total": 9205,
        "ok": 9205,
        "ko": 0
    },
    "meanResponseTime": {
        "total": 448,
        "ok": 448,
        "ko": 0
    },
    "standardDeviation": {
        "total": 411,
        "ok": 411,
        "ko": 0
    },
    "percentiles1": {
        "total": 326,
        "ok": 326,
        "ko": 0
    },
    "percentiles2": {
        "total": 369,
        "ok": 369,
        "ko": 0
    },
    "percentiles3": {
        "total": 891,
        "ok": 891,
        "ko": 0
    },
    "percentiles4": {
        "total": 1926,
        "ok": 1926,
        "ko": 0
    },
    "group1": {
    "name": "t < 800 ms",
    "count": 6910,
    "percentage": 86
},
    "group2": {
    "name": "800 ms < t < 1200 ms",
    "count": 818,
    "percentage": 10
},
    "group3": {
    "name": "t > 1200 ms",
    "count": 261,
    "percentage": 3
},
    "group4": {
    "name": "failed",
    "count": 0,
    "percentage": 0
},
    "meanNumberOfRequestsPerSecond": {
        "total": 4.8213639106819555,
        "ok": 4.8213639106819555,
        "ko": 0
    }
}
    },"req_siette--logout--848ce": {
        "type": "REQUEST",
        "name": "Siette> logout Redirect 2",
"path": "Siette> logout Redirect 2",
"pathFormatted": "req_siette--logout--848ce",
"stats": {
    "name": "Siette> logout Redirect 2",
    "numberOfRequests": {
        "total": 7987,
        "ok": 7987,
        "ko": 0
    },
    "minResponseTime": {
        "total": 214,
        "ok": 214,
        "ko": 0
    },
    "maxResponseTime": {
        "total": 75472,
        "ok": 75472,
        "ko": 0
    },
    "meanResponseTime": {
        "total": 1433,
        "ok": 1433,
        "ko": 0
    },
    "standardDeviation": {
        "total": 1981,
        "ok": 1981,
        "ko": 0
    },
    "percentiles1": {
        "total": 914,
        "ok": 914,
        "ko": 0
    },
    "percentiles2": {
        "total": 1806,
        "ok": 1806,
        "ko": 0
    },
    "percentiles3": {
        "total": 4160,
        "ok": 4160,
        "ko": 0
    },
    "percentiles4": {
        "total": 7280,
        "ok": 7280,
        "ko": 0
    },
    "group1": {
    "name": "t < 800 ms",
    "count": 3664,
    "percentage": 46
},
    "group2": {
    "name": "800 ms < t < 1200 ms",
    "count": 1053,
    "percentage": 13
},
    "group3": {
    "name": "t > 1200 ms",
    "count": 3270,
    "percentage": 41
},
    "group4": {
    "name": "failed",
    "count": 0,
    "percentage": 0
},
    "meanNumberOfRequestsPerSecond": {
        "total": 4.820156910078455,
        "ok": 4.820156910078455,
        "ko": 0
    }
}
    },"req_siette--mis-nex-9325f": {
        "type": "REQUEST",
        "name": "Siette> Mis Next TEST Redirect 1",
"path": "Siette> Mis Next TEST Redirect 1",
"pathFormatted": "req_siette--mis-nex-9325f",
"stats": {
    "name": "Siette> Mis Next TEST Redirect 1",
    "numberOfRequests": {
        "total": 2,
        "ok": 0,
        "ko": 2
    },
    "minResponseTime": {
        "total": 431,
        "ok": 0,
        "ko": 431
    },
    "maxResponseTime": {
        "total": 2872,
        "ok": 0,
        "ko": 2872
    },
    "meanResponseTime": {
        "total": 1652,
        "ok": 0,
        "ko": 1652
    },
    "standardDeviation": {
        "total": 1221,
        "ok": 0,
        "ko": 1221
    },
    "percentiles1": {
        "total": 1652,
        "ok": 0,
        "ko": 1652
    },
    "percentiles2": {
        "total": 2262,
        "ok": 0,
        "ko": 2262
    },
    "percentiles3": {
        "total": 2750,
        "ok": 0,
        "ko": 2750
    },
    "percentiles4": {
        "total": 2848,
        "ok": 0,
        "ko": 2848
    },
    "group1": {
    "name": "t < 800 ms",
    "count": 0,
    "percentage": 0
},
    "group2": {
    "name": "800 ms < t < 1200 ms",
    "count": 0,
    "percentage": 0
},
    "group3": {
    "name": "t > 1200 ms",
    "count": 0,
    "percentage": 0
},
    "group4": {
    "name": "failed",
    "count": 2,
    "percentage": 100
},
    "meanNumberOfRequestsPerSecond": {
        "total": 0.0012070006035003018,
        "ok": 0,
        "ko": 0.0012070006035003018
    }
}
    }
}

}