{
    "name": "Global Information",
    "numberOfRequests": {
        "total": 10,
        "ok": 9,
        "ko": 1
    },
    "minResponseTime": {
        "total": 213,
        "ok": 213,
        "ko": 520
    },
    "maxResponseTime": {
        "total": 1027,
        "ok": 1027,
        "ko": 520
    },
    "meanResponseTime": {
        "total": 343,
        "ok": 324,
        "ko": 520
    },
    "standardDeviation": {
        "total": 247,
        "ok": 253,
        "ko": 0
    },
    "percentiles1": {
        "total": 223,
        "ok": 221,
        "ko": 520
    },
    "percentiles2": {
        "total": 326,
        "ok": 225,
        "ko": 520
    },
    "percentiles3": {
        "total": 799,
        "ok": 760,
        "ko": 520
    },
    "percentiles4": {
        "total": 981,
        "ok": 974,
        "ko": 520
    },
    "group1": {
    "name": "t < 800 ms",
    "count": 8,
    "percentage": 80
},
    "group2": {
    "name": "800 ms < t < 1200 ms",
    "count": 1,
    "percentage": 10
},
    "group3": {
    "name": "t > 1200 ms",
    "count": 0,
    "percentage": 0
},
    "group4": {
    "name": "failed",
    "count": 1,
    "percentage": 10
},
    "meanNumberOfRequestsPerSecond": {
        "total": 2.5,
        "ok": 2.25,
        "ko": 0.25
    }
}