{
    "name": "Global Information",
    "numberOfRequests": {
        "total": 168000,
        "ok": 168000,
        "ko": 0
    },
    "minResponseTime": {
        "total": 210,
        "ok": 210,
        "ko": 0
    },
    "maxResponseTime": {
        "total": 7722,
        "ok": 7722,
        "ko": 0
    },
    "meanResponseTime": {
        "total": 419,
        "ok": 419,
        "ko": 0
    },
    "standardDeviation": {
        "total": 233,
        "ok": 233,
        "ko": 0
    },
    "percentiles1": {
        "total": 437,
        "ok": 437,
        "ko": 0
    },
    "percentiles2": {
        "total": 452,
        "ok": 452,
        "ko": 0
    },
    "percentiles3": {
        "total": 847,
        "ok": 847,
        "ko": 0
    },
    "percentiles4": {
        "total": 1113,
        "ok": 1113,
        "ko": 0
    },
    "group1": {
    "name": "t < 800 ms",
    "count": 158677,
    "percentage": 94
},
    "group2": {
    "name": "800 ms < t < 1200 ms",
    "count": 7894,
    "percentage": 5
},
    "group3": {
    "name": "t > 1200 ms",
    "count": 1429,
    "percentage": 1
},
    "group4": {
    "name": "failed",
    "count": 0,
    "percentage": 0
},
    "meanNumberOfRequestsPerSecond": {
        "total": 274.95908346972175,
        "ok": 274.95908346972175,
        "ko": 0
    }
}