{
  "type": "GROUP",
"name": "Global Information",
"path": "",
"pathFormatted": "group_missing-name-b06d1",
"stats": {
    "name": "Global Information",
    "numberOfRequests": {
        "total": 168000,
        "ok": 168000,
        "ko": 0
    },
    "minResponseTime": {
        "total": 210,
        "ok": 210,
        "ko": 0
    },
    "maxResponseTime": {
        "total": 7722,
        "ok": 7722,
        "ko": 0
    },
    "meanResponseTime": {
        "total": 419,
        "ok": 419,
        "ko": 0
    },
    "standardDeviation": {
        "total": 233,
        "ok": 233,
        "ko": 0
    },
    "percentiles1": {
        "total": 437,
        "ok": 437,
        "ko": 0
    },
    "percentiles2": {
        "total": 452,
        "ok": 452,
        "ko": 0
    },
    "percentiles3": {
        "total": 847,
        "ok": 847,
        "ko": 0
    },
    "percentiles4": {
        "total": 1113,
        "ok": 1113,
        "ko": 0
    },
    "group1": {
    "name": "t < 800 ms",
    "count": 158677,
    "percentage": 94
},
    "group2": {
    "name": "800 ms < t < 1200 ms",
    "count": 7894,
    "percentage": 5
},
    "group3": {
    "name": "t > 1200 ms",
    "count": 1429,
    "percentage": 1
},
    "group4": {
    "name": "failed",
    "count": 0,
    "percentage": 0
},
    "meanNumberOfRequestsPerSecond": {
        "total": 274.95908346972175,
        "ok": 274.95908346972175,
        "ko": 0
    }
},
"contents": {
"req_siette--abrir-s-be296": {
        "type": "REQUEST",
        "name": "Siette> Abrir Siette",
"path": "Siette> Abrir Siette",
"pathFormatted": "req_siette--abrir-s-be296",
"stats": {
    "name": "Siette> Abrir Siette",
    "numberOfRequests": {
        "total": 6000,
        "ok": 6000,
        "ko": 0
    },
    "minResponseTime": {
        "total": 841,
        "ok": 841,
        "ko": 0
    },
    "maxResponseTime": {
        "total": 2865,
        "ok": 2865,
        "ko": 0
    },
    "meanResponseTime": {
        "total": 860,
        "ok": 860,
        "ko": 0
    },
    "standardDeviation": {
        "total": 68,
        "ok": 68,
        "ko": 0
    },
    "percentiles1": {
        "total": 855,
        "ok": 855,
        "ko": 0
    },
    "percentiles2": {
        "total": 859,
        "ok": 859,
        "ko": 0
    },
    "percentiles3": {
        "total": 870,
        "ok": 870,
        "ko": 0
    },
    "percentiles4": {
        "total": 917,
        "ok": 917,
        "ko": 0
    },
    "group1": {
    "name": "t < 800 ms",
    "count": 0,
    "percentage": 0
},
    "group2": {
    "name": "800 ms < t < 1200 ms",
    "count": 5972,
    "percentage": 100
},
    "group3": {
    "name": "t > 1200 ms",
    "count": 28,
    "percentage": 0
},
    "group4": {
    "name": "failed",
    "count": 0,
    "percentage": 0
},
    "meanNumberOfRequestsPerSecond": {
        "total": 9.819967266775777,
        "ok": 9.819967266775777,
        "ko": 0
    }
}
    },"req_siette--abrir-s-ec7da": {
        "type": "REQUEST",
        "name": "Siette> Abrir Siette Redirect 1",
"path": "Siette> Abrir Siette Redirect 1",
"pathFormatted": "req_siette--abrir-s-ec7da",
"stats": {
    "name": "Siette> Abrir Siette Redirect 1",
    "numberOfRequests": {
        "total": 6000,
        "ok": 6000,
        "ko": 0
    },
    "minResponseTime": {
        "total": 210,
        "ok": 210,
        "ko": 0
    },
    "maxResponseTime": {
        "total": 746,
        "ok": 746,
        "ko": 0
    },
    "meanResponseTime": {
        "total": 217,
        "ok": 217,
        "ko": 0
    },
    "standardDeviation": {
        "total": 22,
        "ok": 22,
        "ko": 0
    },
    "percentiles1": {
        "total": 214,
        "ok": 214,
        "ko": 0
    },
    "percentiles2": {
        "total": 215,
        "ok": 215,
        "ko": 0
    },
    "percentiles3": {
        "total": 232,
        "ok": 232,
        "ko": 0
    },
    "percentiles4": {
        "total": 268,
        "ok": 268,
        "ko": 0
    },
    "group1": {
    "name": "t < 800 ms",
    "count": 6000,
    "percentage": 100
},
    "group2": {
    "name": "800 ms < t < 1200 ms",
    "count": 0,
    "percentage": 0
},
    "group3": {
    "name": "t > 1200 ms",
    "count": 0,
    "percentage": 0
},
    "group4": {
    "name": "failed",
    "count": 0,
    "percentage": 0
},
    "meanNumberOfRequestsPerSecond": {
        "total": 9.819967266775777,
        "ok": 9.819967266775777,
        "ko": 0
    }
}
    },"req_siette--abrir-s-af03c": {
        "type": "REQUEST",
        "name": "Siette> Abrir Siette Redirect 2",
"path": "Siette> Abrir Siette Redirect 2",
"pathFormatted": "req_siette--abrir-s-af03c",
"stats": {
    "name": "Siette> Abrir Siette Redirect 2",
    "numberOfRequests": {
        "total": 6000,
        "ok": 6000,
        "ko": 0
    },
    "minResponseTime": {
        "total": 210,
        "ok": 210,
        "ko": 0
    },
    "maxResponseTime": {
        "total": 733,
        "ok": 733,
        "ko": 0
    },
    "meanResponseTime": {
        "total": 216,
        "ok": 216,
        "ko": 0
    },
    "standardDeviation": {
        "total": 16,
        "ok": 16,
        "ko": 0
    },
    "percentiles1": {
        "total": 214,
        "ok": 214,
        "ko": 0
    },
    "percentiles2": {
        "total": 215,
        "ok": 215,
        "ko": 0
    },
    "percentiles3": {
        "total": 227,
        "ok": 227,
        "ko": 0
    },
    "percentiles4": {
        "total": 262,
        "ok": 262,
        "ko": 0
    },
    "group1": {
    "name": "t < 800 ms",
    "count": 6000,
    "percentage": 100
},
    "group2": {
    "name": "800 ms < t < 1200 ms",
    "count": 0,
    "percentage": 0
},
    "group3": {
    "name": "t > 1200 ms",
    "count": 0,
    "percentage": 0
},
    "group4": {
    "name": "failed",
    "count": 0,
    "percentage": 0
},
    "meanNumberOfRequestsPerSecond": {
        "total": 9.819967266775777,
        "ok": 9.819967266775777,
        "ko": 0
    }
}
    },"req_siette--abrir-s-bf59e": {
        "type": "REQUEST",
        "name": "Siette> Abrir Siette Redirect 3",
"path": "Siette> Abrir Siette Redirect 3",
"pathFormatted": "req_siette--abrir-s-bf59e",
"stats": {
    "name": "Siette> Abrir Siette Redirect 3",
    "numberOfRequests": {
        "total": 6000,
        "ok": 6000,
        "ko": 0
    },
    "minResponseTime": {
        "total": 215,
        "ok": 215,
        "ko": 0
    },
    "maxResponseTime": {
        "total": 1579,
        "ok": 1579,
        "ko": 0
    },
    "meanResponseTime": {
        "total": 229,
        "ok": 229,
        "ko": 0
    },
    "standardDeviation": {
        "total": 54,
        "ok": 54,
        "ko": 0
    },
    "percentiles1": {
        "total": 221,
        "ok": 221,
        "ko": 0
    },
    "percentiles2": {
        "total": 224,
        "ok": 224,
        "ko": 0
    },
    "percentiles3": {
        "total": 260,
        "ok": 260,
        "ko": 0
    },
    "percentiles4": {
        "total": 431,
        "ok": 431,
        "ko": 0
    },
    "group1": {
    "name": "t < 800 ms",
    "count": 5986,
    "percentage": 100
},
    "group2": {
    "name": "800 ms < t < 1200 ms",
    "count": 9,
    "percentage": 0
},
    "group3": {
    "name": "t > 1200 ms",
    "count": 5,
    "percentage": 0
},
    "group4": {
    "name": "failed",
    "count": 0,
    "percentage": 0
},
    "meanNumberOfRequestsPerSecond": {
        "total": 9.819967266775777,
        "ok": 9.819967266775777,
        "ko": 0
    }
}
    },"req_siette--login-a-00c34": {
        "type": "REQUEST",
        "name": "Siette> Login Action",
"path": "Siette> Login Action",
"pathFormatted": "req_siette--login-a-00c34",
"stats": {
    "name": "Siette> Login Action",
    "numberOfRequests": {
        "total": 6000,
        "ok": 6000,
        "ko": 0
    },
    "minResponseTime": {
        "total": 299,
        "ok": 299,
        "ko": 0
    },
    "maxResponseTime": {
        "total": 971,
        "ok": 971,
        "ko": 0
    },
    "meanResponseTime": {
        "total": 361,
        "ok": 361,
        "ko": 0
    },
    "standardDeviation": {
        "total": 67,
        "ok": 67,
        "ko": 0
    },
    "percentiles1": {
        "total": 337,
        "ok": 337,
        "ko": 0
    },
    "percentiles2": {
        "total": 380,
        "ok": 380,
        "ko": 0
    },
    "percentiles3": {
        "total": 499,
        "ok": 499,
        "ko": 0
    },
    "percentiles4": {
        "total": 613,
        "ok": 613,
        "ko": 0
    },
    "group1": {
    "name": "t < 800 ms",
    "count": 5991,
    "percentage": 100
},
    "group2": {
    "name": "800 ms < t < 1200 ms",
    "count": 9,
    "percentage": 0
},
    "group3": {
    "name": "t > 1200 ms",
    "count": 0,
    "percentage": 0
},
    "group4": {
    "name": "failed",
    "count": 0,
    "percentage": 0
},
    "meanNumberOfRequestsPerSecond": {
        "total": 9.819967266775777,
        "ok": 9.819967266775777,
        "ko": 0
    }
}
    },"req_siette--login-a-dbf55": {
        "type": "REQUEST",
        "name": "Siette> Login Action Redirect 1",
"path": "Siette> Login Action Redirect 1",
"pathFormatted": "req_siette--login-a-dbf55",
"stats": {
    "name": "Siette> Login Action Redirect 1",
    "numberOfRequests": {
        "total": 6000,
        "ok": 6000,
        "ko": 0
    },
    "minResponseTime": {
        "total": 218,
        "ok": 218,
        "ko": 0
    },
    "maxResponseTime": {
        "total": 2167,
        "ok": 2167,
        "ko": 0
    },
    "meanResponseTime": {
        "total": 240,
        "ok": 240,
        "ko": 0
    },
    "standardDeviation": {
        "total": 77,
        "ok": 77,
        "ko": 0
    },
    "percentiles1": {
        "total": 225,
        "ok": 225,
        "ko": 0
    },
    "percentiles2": {
        "total": 233,
        "ok": 233,
        "ko": 0
    },
    "percentiles3": {
        "total": 287,
        "ok": 287,
        "ko": 0
    },
    "percentiles4": {
        "total": 442,
        "ok": 442,
        "ko": 0
    },
    "group1": {
    "name": "t < 800 ms",
    "count": 5980,
    "percentage": 100
},
    "group2": {
    "name": "800 ms < t < 1200 ms",
    "count": 7,
    "percentage": 0
},
    "group3": {
    "name": "t > 1200 ms",
    "count": 13,
    "percentage": 0
},
    "group4": {
    "name": "failed",
    "count": 0,
    "percentage": 0
},
    "meanNumberOfRequestsPerSecond": {
        "total": 9.819967266775777,
        "ok": 9.819967266775777,
        "ko": 0
    }
}
    },"req_siette--mis-nex-a6db5": {
        "type": "REQUEST",
        "name": "Siette> Mis Next TEST",
"path": "Siette> Mis Next TEST",
"pathFormatted": "req_siette--mis-nex-a6db5",
"stats": {
    "name": "Siette> Mis Next TEST",
    "numberOfRequests": {
        "total": 6000,
        "ok": 6000,
        "ko": 0
    },
    "minResponseTime": {
        "total": 342,
        "ok": 342,
        "ko": 0
    },
    "maxResponseTime": {
        "total": 7722,
        "ok": 7722,
        "ko": 0
    },
    "meanResponseTime": {
        "total": 799,
        "ok": 799,
        "ko": 0
    },
    "standardDeviation": {
        "total": 702,
        "ok": 702,
        "ko": 0
    },
    "percentiles1": {
        "total": 549,
        "ok": 549,
        "ko": 0
    },
    "percentiles2": {
        "total": 600,
        "ok": 600,
        "ko": 0
    },
    "percentiles3": {
        "total": 2516,
        "ok": 2516,
        "ko": 0
    },
    "percentiles4": {
        "total": 3577,
        "ok": 3577,
        "ko": 0
    },
    "group1": {
    "name": "t < 800 ms",
    "count": 5072,
    "percentage": 85
},
    "group2": {
    "name": "800 ms < t < 1200 ms",
    "count": 202,
    "percentage": 3
},
    "group3": {
    "name": "t > 1200 ms",
    "count": 726,
    "percentage": 12
},
    "group4": {
    "name": "failed",
    "count": 0,
    "percentage": 0
},
    "meanNumberOfRequestsPerSecond": {
        "total": 9.819967266775777,
        "ok": 9.819967266775777,
        "ko": 0
    }
}
    },"req_siette--abrir-s-d2054": {
        "type": "REQUEST",
        "name": "Siette> Abrir selección de test CONCURRENCIA - TEST DE PRUEBA - A",
"path": "Siette> Abrir selección de test CONCURRENCIA - TEST DE PRUEBA - A",
"pathFormatted": "req_siette--abrir-s-d2054",
"stats": {
    "name": "Siette> Abrir selección de test CONCURRENCIA - TEST DE PRUEBA - A",
    "numberOfRequests": {
        "total": 6000,
        "ok": 6000,
        "ko": 0
    },
    "minResponseTime": {
        "total": 301,
        "ok": 301,
        "ko": 0
    },
    "maxResponseTime": {
        "total": 986,
        "ok": 986,
        "ko": 0
    },
    "meanResponseTime": {
        "total": 365,
        "ok": 365,
        "ko": 0
    },
    "standardDeviation": {
        "total": 71,
        "ok": 71,
        "ko": 0
    },
    "percentiles1": {
        "total": 339,
        "ok": 339,
        "ko": 0
    },
    "percentiles2": {
        "total": 384,
        "ok": 384,
        "ko": 0
    },
    "percentiles3": {
        "total": 511,
        "ok": 511,
        "ko": 0
    },
    "percentiles4": {
        "total": 652,
        "ok": 652,
        "ko": 0
    },
    "group1": {
    "name": "t < 800 ms",
    "count": 5992,
    "percentage": 100
},
    "group2": {
    "name": "800 ms < t < 1200 ms",
    "count": 8,
    "percentage": 0
},
    "group3": {
    "name": "t > 1200 ms",
    "count": 0,
    "percentage": 0
},
    "group4": {
    "name": "failed",
    "count": 0,
    "percentage": 0
},
    "meanNumberOfRequestsPerSecond": {
        "total": 9.819967266775777,
        "ok": 9.819967266775777,
        "ko": 0
    }
}
    },"req_siette--abrir-s-1b83b": {
        "type": "REQUEST",
        "name": "Siette> Abrir selección de test CONCURRENCIA - TEST DE PRUEBA - A Redirect 1",
"path": "Siette> Abrir selección de test CONCURRENCIA - TEST DE PRUEBA - A Redirect 1",
"pathFormatted": "req_siette--abrir-s-1b83b",
"stats": {
    "name": "Siette> Abrir selección de test CONCURRENCIA - TEST DE PRUEBA - A Redirect 1",
    "numberOfRequests": {
        "total": 6000,
        "ok": 6000,
        "ko": 0
    },
    "minResponseTime": {
        "total": 419,
        "ok": 419,
        "ko": 0
    },
    "maxResponseTime": {
        "total": 3201,
        "ok": 3201,
        "ko": 0
    },
    "meanResponseTime": {
        "total": 809,
        "ok": 809,
        "ko": 0
    },
    "standardDeviation": {
        "total": 224,
        "ok": 224,
        "ko": 0
    },
    "percentiles1": {
        "total": 725,
        "ok": 725,
        "ko": 0
    },
    "percentiles2": {
        "total": 824,
        "ok": 824,
        "ko": 0
    },
    "percentiles3": {
        "total": 1267,
        "ok": 1267,
        "ko": 0
    },
    "percentiles4": {
        "total": 1634,
        "ok": 1634,
        "ko": 0
    },
    "group1": {
    "name": "t < 800 ms",
    "count": 4345,
    "percentage": 72
},
    "group2": {
    "name": "800 ms < t < 1200 ms",
    "count": 1252,
    "percentage": 21
},
    "group3": {
    "name": "t > 1200 ms",
    "count": 403,
    "percentage": 7
},
    "group4": {
    "name": "failed",
    "count": 0,
    "percentage": 0
},
    "meanNumberOfRequestsPerSecond": {
        "total": 9.819967266775777,
        "ok": 9.819967266775777,
        "ko": 0
    }
}
    },"req_siette--confirm-0c992": {
        "type": "REQUEST",
        "name": "Siette> Confirmar selección de test CONCURRENCIA - TEST DE PRUEBA - A",
"path": "Siette> Confirmar selección de test CONCURRENCIA - TEST DE PRUEBA - A",
"pathFormatted": "req_siette--confirm-0c992",
"stats": {
    "name": "Siette> Confirmar selección de test CONCURRENCIA - TEST DE PRUEBA - A",
    "numberOfRequests": {
        "total": 6000,
        "ok": 6000,
        "ko": 0
    },
    "minResponseTime": {
        "total": 429,
        "ok": 429,
        "ko": 0
    },
    "maxResponseTime": {
        "total": 2173,
        "ok": 2173,
        "ko": 0
    },
    "meanResponseTime": {
        "total": 504,
        "ok": 504,
        "ko": 0
    },
    "standardDeviation": {
        "total": 110,
        "ok": 110,
        "ko": 0
    },
    "percentiles1": {
        "total": 445,
        "ok": 445,
        "ko": 0
    },
    "percentiles2": {
        "total": 516,
        "ok": 516,
        "ko": 0
    },
    "percentiles3": {
        "total": 671,
        "ok": 671,
        "ko": 0
    },
    "percentiles4": {
        "total": 748,
        "ok": 748,
        "ko": 0
    },
    "group1": {
    "name": "t < 800 ms",
    "count": 5951,
    "percentage": 99
},
    "group2": {
    "name": "800 ms < t < 1200 ms",
    "count": 31,
    "percentage": 1
},
    "group3": {
    "name": "t > 1200 ms",
    "count": 18,
    "percentage": 0
},
    "group4": {
    "name": "failed",
    "count": 0,
    "percentage": 0
},
    "meanNumberOfRequestsPerSecond": {
        "total": 9.819967266775777,
        "ok": 9.819967266775777,
        "ko": 0
    }
}
    },"req_p1-ec6ef": {
        "type": "REQUEST",
        "name": "p1",
"path": "p1",
"pathFormatted": "req_p1-ec6ef",
"stats": {
    "name": "p1",
    "numberOfRequests": {
        "total": 6000,
        "ok": 6000,
        "ko": 0
    },
    "minResponseTime": {
        "total": 429,
        "ok": 429,
        "ko": 0
    },
    "maxResponseTime": {
        "total": 2372,
        "ok": 2372,
        "ko": 0
    },
    "meanResponseTime": {
        "total": 460,
        "ok": 460,
        "ko": 0
    },
    "standardDeviation": {
        "total": 82,
        "ok": 82,
        "ko": 0
    },
    "percentiles1": {
        "total": 441,
        "ok": 441,
        "ko": 0
    },
    "percentiles2": {
        "total": 450,
        "ok": 450,
        "ko": 0
    },
    "percentiles3": {
        "total": 532,
        "ok": 532,
        "ko": 0
    },
    "percentiles4": {
        "total": 716,
        "ok": 716,
        "ko": 0
    },
    "group1": {
    "name": "t < 800 ms",
    "count": 5954,
    "percentage": 99
},
    "group2": {
    "name": "800 ms < t < 1200 ms",
    "count": 34,
    "percentage": 1
},
    "group3": {
    "name": "t > 1200 ms",
    "count": 12,
    "percentage": 0
},
    "group4": {
    "name": "failed",
    "count": 0,
    "percentage": 0
},
    "meanNumberOfRequestsPerSecond": {
        "total": 9.819967266775777,
        "ok": 9.819967266775777,
        "ko": 0
    }
}
    },"req_p2-1d665": {
        "type": "REQUEST",
        "name": "p2",
"path": "p2",
"pathFormatted": "req_p2-1d665",
"stats": {
    "name": "p2",
    "numberOfRequests": {
        "total": 6000,
        "ok": 6000,
        "ko": 0
    },
    "minResponseTime": {
        "total": 429,
        "ok": 429,
        "ko": 0
    },
    "maxResponseTime": {
        "total": 2205,
        "ok": 2205,
        "ko": 0
    },
    "meanResponseTime": {
        "total": 461,
        "ok": 461,
        "ko": 0
    },
    "standardDeviation": {
        "total": 86,
        "ok": 86,
        "ko": 0
    },
    "percentiles1": {
        "total": 441,
        "ok": 441,
        "ko": 0
    },
    "percentiles2": {
        "total": 450,
        "ok": 450,
        "ko": 0
    },
    "percentiles3": {
        "total": 540,
        "ok": 540,
        "ko": 0
    },
    "percentiles4": {
        "total": 720,
        "ok": 720,
        "ko": 0
    },
    "group1": {
    "name": "t < 800 ms",
    "count": 5954,
    "percentage": 99
},
    "group2": {
    "name": "800 ms < t < 1200 ms",
    "count": 26,
    "percentage": 0
},
    "group3": {
    "name": "t > 1200 ms",
    "count": 20,
    "percentage": 0
},
    "group4": {
    "name": "failed",
    "count": 0,
    "percentage": 0
},
    "meanNumberOfRequestsPerSecond": {
        "total": 9.819967266775777,
        "ok": 9.819967266775777,
        "ko": 0
    }
}
    },"req_p3-7bc3c": {
        "type": "REQUEST",
        "name": "p3",
"path": "p3",
"pathFormatted": "req_p3-7bc3c",
"stats": {
    "name": "p3",
    "numberOfRequests": {
        "total": 6000,
        "ok": 6000,
        "ko": 0
    },
    "minResponseTime": {
        "total": 429,
        "ok": 429,
        "ko": 0
    },
    "maxResponseTime": {
        "total": 1896,
        "ok": 1896,
        "ko": 0
    },
    "meanResponseTime": {
        "total": 459,
        "ok": 459,
        "ko": 0
    },
    "standardDeviation": {
        "total": 84,
        "ok": 84,
        "ko": 0
    },
    "percentiles1": {
        "total": 441,
        "ok": 441,
        "ko": 0
    },
    "percentiles2": {
        "total": 450,
        "ok": 450,
        "ko": 0
    },
    "percentiles3": {
        "total": 515,
        "ok": 515,
        "ko": 0
    },
    "percentiles4": {
        "total": 710,
        "ok": 710,
        "ko": 0
    },
    "group1": {
    "name": "t < 800 ms",
    "count": 5954,
    "percentage": 99
},
    "group2": {
    "name": "800 ms < t < 1200 ms",
    "count": 28,
    "percentage": 0
},
    "group3": {
    "name": "t > 1200 ms",
    "count": 18,
    "percentage": 0
},
    "group4": {
    "name": "failed",
    "count": 0,
    "percentage": 0
},
    "meanNumberOfRequestsPerSecond": {
        "total": 9.819967266775777,
        "ok": 9.819967266775777,
        "ko": 0
    }
}
    },"req_p4-13207": {
        "type": "REQUEST",
        "name": "p4",
"path": "p4",
"pathFormatted": "req_p4-13207",
"stats": {
    "name": "p4",
    "numberOfRequests": {
        "total": 6000,
        "ok": 6000,
        "ko": 0
    },
    "minResponseTime": {
        "total": 429,
        "ok": 429,
        "ko": 0
    },
    "maxResponseTime": {
        "total": 1960,
        "ok": 1960,
        "ko": 0
    },
    "meanResponseTime": {
        "total": 458,
        "ok": 458,
        "ko": 0
    },
    "standardDeviation": {
        "total": 79,
        "ok": 79,
        "ko": 0
    },
    "percentiles1": {
        "total": 441,
        "ok": 441,
        "ko": 0
    },
    "percentiles2": {
        "total": 451,
        "ok": 451,
        "ko": 0
    },
    "percentiles3": {
        "total": 511,
        "ok": 512,
        "ko": 0
    },
    "percentiles4": {
        "total": 691,
        "ok": 691,
        "ko": 0
    },
    "group1": {
    "name": "t < 800 ms",
    "count": 5959,
    "percentage": 99
},
    "group2": {
    "name": "800 ms < t < 1200 ms",
    "count": 21,
    "percentage": 0
},
    "group3": {
    "name": "t > 1200 ms",
    "count": 20,
    "percentage": 0
},
    "group4": {
    "name": "failed",
    "count": 0,
    "percentage": 0
},
    "meanNumberOfRequestsPerSecond": {
        "total": 9.819967266775777,
        "ok": 9.819967266775777,
        "ko": 0
    }
}
    },"req_p5-ed92e": {
        "type": "REQUEST",
        "name": "p5",
"path": "p5",
"pathFormatted": "req_p5-ed92e",
"stats": {
    "name": "p5",
    "numberOfRequests": {
        "total": 6000,
        "ok": 6000,
        "ko": 0
    },
    "minResponseTime": {
        "total": 429,
        "ok": 429,
        "ko": 0
    },
    "maxResponseTime": {
        "total": 1836,
        "ok": 1836,
        "ko": 0
    },
    "meanResponseTime": {
        "total": 456,
        "ok": 456,
        "ko": 0
    },
    "standardDeviation": {
        "total": 73,
        "ok": 73,
        "ko": 0
    },
    "percentiles1": {
        "total": 441,
        "ok": 441,
        "ko": 0
    },
    "percentiles2": {
        "total": 450,
        "ok": 450,
        "ko": 0
    },
    "percentiles3": {
        "total": 508,
        "ok": 508,
        "ko": 0
    },
    "percentiles4": {
        "total": 679,
        "ok": 679,
        "ko": 0
    },
    "group1": {
    "name": "t < 800 ms",
    "count": 5970,
    "percentage": 100
},
    "group2": {
    "name": "800 ms < t < 1200 ms",
    "count": 11,
    "percentage": 0
},
    "group3": {
    "name": "t > 1200 ms",
    "count": 19,
    "percentage": 0
},
    "group4": {
    "name": "failed",
    "count": 0,
    "percentage": 0
},
    "meanNumberOfRequestsPerSecond": {
        "total": 9.819967266775777,
        "ok": 9.819967266775777,
        "ko": 0
    }
}
    },"req_p6-c6c27": {
        "type": "REQUEST",
        "name": "p6",
"path": "p6",
"pathFormatted": "req_p6-c6c27",
"stats": {
    "name": "p6",
    "numberOfRequests": {
        "total": 6000,
        "ok": 6000,
        "ko": 0
    },
    "minResponseTime": {
        "total": 430,
        "ok": 430,
        "ko": 0
    },
    "maxResponseTime": {
        "total": 1547,
        "ok": 1547,
        "ko": 0
    },
    "meanResponseTime": {
        "total": 454,
        "ok": 454,
        "ko": 0
    },
    "standardDeviation": {
        "total": 63,
        "ok": 63,
        "ko": 0
    },
    "percentiles1": {
        "total": 441,
        "ok": 441,
        "ko": 0
    },
    "percentiles2": {
        "total": 449,
        "ok": 449,
        "ko": 0
    },
    "percentiles3": {
        "total": 498,
        "ok": 499,
        "ko": 0
    },
    "percentiles4": {
        "total": 671,
        "ok": 671,
        "ko": 0
    },
    "group1": {
    "name": "t < 800 ms",
    "count": 5966,
    "percentage": 99
},
    "group2": {
    "name": "800 ms < t < 1200 ms",
    "count": 21,
    "percentage": 0
},
    "group3": {
    "name": "t > 1200 ms",
    "count": 13,
    "percentage": 0
},
    "group4": {
    "name": "failed",
    "count": 0,
    "percentage": 0
},
    "meanNumberOfRequestsPerSecond": {
        "total": 9.819967266775777,
        "ok": 9.819967266775777,
        "ko": 0
    }
}
    },"req_p7-46d46": {
        "type": "REQUEST",
        "name": "p7",
"path": "p7",
"pathFormatted": "req_p7-46d46",
"stats": {
    "name": "p7",
    "numberOfRequests": {
        "total": 6000,
        "ok": 6000,
        "ko": 0
    },
    "minResponseTime": {
        "total": 429,
        "ok": 429,
        "ko": 0
    },
    "maxResponseTime": {
        "total": 2124,
        "ok": 2124,
        "ko": 0
    },
    "meanResponseTime": {
        "total": 455,
        "ok": 455,
        "ko": 0
    },
    "standardDeviation": {
        "total": 63,
        "ok": 63,
        "ko": 0
    },
    "percentiles1": {
        "total": 441,
        "ok": 441,
        "ko": 0
    },
    "percentiles2": {
        "total": 450,
        "ok": 450,
        "ko": 0
    },
    "percentiles3": {
        "total": 505,
        "ok": 505,
        "ko": 0
    },
    "percentiles4": {
        "total": 667,
        "ok": 667,
        "ko": 0
    },
    "group1": {
    "name": "t < 800 ms",
    "count": 5973,
    "percentage": 100
},
    "group2": {
    "name": "800 ms < t < 1200 ms",
    "count": 17,
    "percentage": 0
},
    "group3": {
    "name": "t > 1200 ms",
    "count": 10,
    "percentage": 0
},
    "group4": {
    "name": "failed",
    "count": 0,
    "percentage": 0
},
    "meanNumberOfRequestsPerSecond": {
        "total": 9.819967266775777,
        "ok": 9.819967266775777,
        "ko": 0
    }
}
    },"req_p8-2e3f2": {
        "type": "REQUEST",
        "name": "p8",
"path": "p8",
"pathFormatted": "req_p8-2e3f2",
"stats": {
    "name": "p8",
    "numberOfRequests": {
        "total": 6000,
        "ok": 6000,
        "ko": 0
    },
    "minResponseTime": {
        "total": 431,
        "ok": 431,
        "ko": 0
    },
    "maxResponseTime": {
        "total": 2538,
        "ok": 2538,
        "ko": 0
    },
    "meanResponseTime": {
        "total": 459,
        "ok": 459,
        "ko": 0
    },
    "standardDeviation": {
        "total": 70,
        "ok": 70,
        "ko": 0
    },
    "percentiles1": {
        "total": 443,
        "ok": 443,
        "ko": 0
    },
    "percentiles2": {
        "total": 456,
        "ok": 456,
        "ko": 0
    },
    "percentiles3": {
        "total": 517,
        "ok": 517,
        "ko": 0
    },
    "percentiles4": {
        "total": 676,
        "ok": 676,
        "ko": 0
    },
    "group1": {
    "name": "t < 800 ms",
    "count": 5968,
    "percentage": 99
},
    "group2": {
    "name": "800 ms < t < 1200 ms",
    "count": 21,
    "percentage": 0
},
    "group3": {
    "name": "t > 1200 ms",
    "count": 11,
    "percentage": 0
},
    "group4": {
    "name": "failed",
    "count": 0,
    "percentage": 0
},
    "meanNumberOfRequestsPerSecond": {
        "total": 9.819967266775777,
        "ok": 9.819967266775777,
        "ko": 0
    }
}
    },"req_p9-d9a9d": {
        "type": "REQUEST",
        "name": "p9",
"path": "p9",
"pathFormatted": "req_p9-d9a9d",
"stats": {
    "name": "p9",
    "numberOfRequests": {
        "total": 6000,
        "ok": 6000,
        "ko": 0
    },
    "minResponseTime": {
        "total": 430,
        "ok": 430,
        "ko": 0
    },
    "maxResponseTime": {
        "total": 2154,
        "ok": 2154,
        "ko": 0
    },
    "meanResponseTime": {
        "total": 458,
        "ok": 458,
        "ko": 0
    },
    "standardDeviation": {
        "total": 71,
        "ok": 71,
        "ko": 0
    },
    "percentiles1": {
        "total": 442,
        "ok": 442,
        "ko": 0
    },
    "percentiles2": {
        "total": 453,
        "ok": 453,
        "ko": 0
    },
    "percentiles3": {
        "total": 513,
        "ok": 513,
        "ko": 0
    },
    "percentiles4": {
        "total": 699,
        "ok": 699,
        "ko": 0
    },
    "group1": {
    "name": "t < 800 ms",
    "count": 5955,
    "percentage": 99
},
    "group2": {
    "name": "800 ms < t < 1200 ms",
    "count": 31,
    "percentage": 1
},
    "group3": {
    "name": "t > 1200 ms",
    "count": 14,
    "percentage": 0
},
    "group4": {
    "name": "failed",
    "count": 0,
    "percentage": 0
},
    "meanNumberOfRequestsPerSecond": {
        "total": 9.819967266775777,
        "ok": 9.819967266775777,
        "ko": 0
    }
}
    },"req_p10-ad304": {
        "type": "REQUEST",
        "name": "p10",
"path": "p10",
"pathFormatted": "req_p10-ad304",
"stats": {
    "name": "p10",
    "numberOfRequests": {
        "total": 6000,
        "ok": 6000,
        "ko": 0
    },
    "minResponseTime": {
        "total": 220,
        "ok": 220,
        "ko": 0
    },
    "maxResponseTime": {
        "total": 1961,
        "ok": 1961,
        "ko": 0
    },
    "meanResponseTime": {
        "total": 450,
        "ok": 450,
        "ko": 0
    },
    "standardDeviation": {
        "total": 74,
        "ok": 74,
        "ko": 0
    },
    "percentiles1": {
        "total": 439,
        "ok": 439,
        "ko": 0
    },
    "percentiles2": {
        "total": 446,
        "ok": 446,
        "ko": 0
    },
    "percentiles3": {
        "total": 498,
        "ok": 498,
        "ko": 0
    },
    "percentiles4": {
        "total": 665,
        "ok": 665,
        "ko": 0
    },
    "group1": {
    "name": "t < 800 ms",
    "count": 5963,
    "percentage": 99
},
    "group2": {
    "name": "800 ms < t < 1200 ms",
    "count": 24,
    "percentage": 0
},
    "group3": {
    "name": "t > 1200 ms",
    "count": 13,
    "percentage": 0
},
    "group4": {
    "name": "failed",
    "count": 0,
    "percentage": 0
},
    "meanNumberOfRequestsPerSecond": {
        "total": 9.819967266775777,
        "ok": 9.819967266775777,
        "ko": 0
    }
}
    },"req_p11-52053": {
        "type": "REQUEST",
        "name": "p11",
"path": "p11",
"pathFormatted": "req_p11-52053",
"stats": {
    "name": "p11",
    "numberOfRequests": {
        "total": 6000,
        "ok": 6000,
        "ko": 0
    },
    "minResponseTime": {
        "total": 219,
        "ok": 219,
        "ko": 0
    },
    "maxResponseTime": {
        "total": 1929,
        "ok": 1929,
        "ko": 0
    },
    "meanResponseTime": {
        "total": 414,
        "ok": 414,
        "ko": 0
    },
    "standardDeviation": {
        "total": 103,
        "ok": 103,
        "ko": 0
    },
    "percentiles1": {
        "total": 438,
        "ok": 438,
        "ko": 0
    },
    "percentiles2": {
        "total": 444,
        "ok": 444,
        "ko": 0
    },
    "percentiles3": {
        "total": 492,
        "ok": 492,
        "ko": 0
    },
    "percentiles4": {
        "total": 577,
        "ok": 577,
        "ko": 0
    },
    "group1": {
    "name": "t < 800 ms",
    "count": 5975,
    "percentage": 100
},
    "group2": {
    "name": "800 ms < t < 1200 ms",
    "count": 15,
    "percentage": 0
},
    "group3": {
    "name": "t > 1200 ms",
    "count": 10,
    "percentage": 0
},
    "group4": {
    "name": "failed",
    "count": 0,
    "percentage": 0
},
    "meanNumberOfRequestsPerSecond": {
        "total": 9.819967266775777,
        "ok": 9.819967266775777,
        "ko": 0
    }
}
    },"req_p12-d3d07": {
        "type": "REQUEST",
        "name": "p12",
"path": "p12",
"pathFormatted": "req_p12-d3d07",
"stats": {
    "name": "p12",
    "numberOfRequests": {
        "total": 6000,
        "ok": 6000,
        "ko": 0
    },
    "minResponseTime": {
        "total": 219,
        "ok": 219,
        "ko": 0
    },
    "maxResponseTime": {
        "total": 1927,
        "ok": 1927,
        "ko": 0
    },
    "meanResponseTime": {
        "total": 322,
        "ok": 322,
        "ko": 0
    },
    "standardDeviation": {
        "total": 133,
        "ok": 133,
        "ko": 0
    },
    "percentiles1": {
        "total": 236,
        "ok": 236,
        "ko": 0
    },
    "percentiles2": {
        "total": 438,
        "ok": 438,
        "ko": 0
    },
    "percentiles3": {
        "total": 471,
        "ok": 471,
        "ko": 0
    },
    "percentiles4": {
        "total": 653,
        "ok": 653,
        "ko": 0
    },
    "group1": {
    "name": "t < 800 ms",
    "count": 5964,
    "percentage": 99
},
    "group2": {
    "name": "800 ms < t < 1200 ms",
    "count": 16,
    "percentage": 0
},
    "group3": {
    "name": "t > 1200 ms",
    "count": 20,
    "percentage": 0
},
    "group4": {
    "name": "failed",
    "count": 0,
    "percentage": 0
},
    "meanNumberOfRequestsPerSecond": {
        "total": 9.819967266775777,
        "ok": 9.819967266775777,
        "ko": 0
    }
}
    },"req_p13-f4fc7": {
        "type": "REQUEST",
        "name": "p13",
"path": "p13",
"pathFormatted": "req_p13-f4fc7",
"stats": {
    "name": "p13",
    "numberOfRequests": {
        "total": 6000,
        "ok": 6000,
        "ko": 0
    },
    "minResponseTime": {
        "total": 219,
        "ok": 219,
        "ko": 0
    },
    "maxResponseTime": {
        "total": 1916,
        "ok": 1916,
        "ko": 0
    },
    "meanResponseTime": {
        "total": 275,
        "ok": 275,
        "ko": 0
    },
    "standardDeviation": {
        "total": 119,
        "ok": 119,
        "ko": 0
    },
    "percentiles1": {
        "total": 227,
        "ok": 227,
        "ko": 0
    },
    "percentiles2": {
        "total": 250,
        "ok": 250,
        "ko": 0
    },
    "percentiles3": {
        "total": 454,
        "ok": 454,
        "ko": 0
    },
    "percentiles4": {
        "total": 653,
        "ok": 653,
        "ko": 0
    },
    "group1": {
    "name": "t < 800 ms",
    "count": 5963,
    "percentage": 99
},
    "group2": {
    "name": "800 ms < t < 1200 ms",
    "count": 19,
    "percentage": 0
},
    "group3": {
    "name": "t > 1200 ms",
    "count": 18,
    "percentage": 0
},
    "group4": {
    "name": "failed",
    "count": 0,
    "percentage": 0
},
    "meanNumberOfRequestsPerSecond": {
        "total": 9.819967266775777,
        "ok": 9.819967266775777,
        "ko": 0
    }
}
    },"req_p14-989ae": {
        "type": "REQUEST",
        "name": "p14",
"path": "p14",
"pathFormatted": "req_p14-989ae",
"stats": {
    "name": "p14",
    "numberOfRequests": {
        "total": 6000,
        "ok": 6000,
        "ko": 0
    },
    "minResponseTime": {
        "total": 440,
        "ok": 440,
        "ko": 0
    },
    "maxResponseTime": {
        "total": 2181,
        "ok": 2181,
        "ko": 0
    },
    "meanResponseTime": {
        "total": 494,
        "ok": 494,
        "ko": 0
    },
    "standardDeviation": {
        "total": 113,
        "ok": 113,
        "ko": 0
    },
    "percentiles1": {
        "total": 453,
        "ok": 453,
        "ko": 0
    },
    "percentiles2": {
        "total": 488,
        "ok": 488,
        "ko": 0
    },
    "percentiles3": {
        "total": 697,
        "ok": 697,
        "ko": 0
    },
    "percentiles4": {
        "total": 912,
        "ok": 912,
        "ko": 0
    },
    "group1": {
    "name": "t < 800 ms",
    "count": 5880,
    "percentage": 98
},
    "group2": {
    "name": "800 ms < t < 1200 ms",
    "count": 97,
    "percentage": 2
},
    "group3": {
    "name": "t > 1200 ms",
    "count": 23,
    "percentage": 0
},
    "group4": {
    "name": "failed",
    "count": 0,
    "percentage": 0
},
    "meanNumberOfRequestsPerSecond": {
        "total": 9.819967266775777,
        "ok": 9.819967266775777,
        "ko": 0
    }
}
    },"req_pregunta--send--45f05": {
        "type": "REQUEST",
        "name": "pregunta, send empty 15",
"path": "pregunta, send empty 15",
"pathFormatted": "req_pregunta--send--45f05",
"stats": {
    "name": "pregunta, send empty 15",
    "numberOfRequests": {
        "total": 6000,
        "ok": 6000,
        "ko": 0
    },
    "minResponseTime": {
        "total": 224,
        "ok": 224,
        "ko": 0
    },
    "maxResponseTime": {
        "total": 1808,
        "ok": 1808,
        "ko": 0
    },
    "meanResponseTime": {
        "total": 255,
        "ok": 255,
        "ko": 0
    },
    "standardDeviation": {
        "total": 73,
        "ok": 73,
        "ko": 0
    },
    "percentiles1": {
        "total": 235,
        "ok": 235,
        "ko": 0
    },
    "percentiles2": {
        "total": 258,
        "ok": 258,
        "ko": 0
    },
    "percentiles3": {
        "total": 333,
        "ok": 333,
        "ko": 0
    },
    "percentiles4": {
        "total": 425,
        "ok": 425,
        "ko": 0
    },
    "group1": {
    "name": "t < 800 ms",
    "count": 5982,
    "percentage": 100
},
    "group2": {
    "name": "800 ms < t < 1200 ms",
    "count": 9,
    "percentage": 0
},
    "group3": {
    "name": "t > 1200 ms",
    "count": 9,
    "percentage": 0
},
    "group4": {
    "name": "failed",
    "count": 0,
    "percentage": 0
},
    "meanNumberOfRequestsPerSecond": {
        "total": 9.819967266775777,
        "ok": 9.819967266775777,
        "ko": 0
    }
}
    },"req_siette--logout-81b63": {
        "type": "REQUEST",
        "name": "Siette> logout",
"path": "Siette> logout",
"pathFormatted": "req_siette--logout-81b63",
"stats": {
    "name": "Siette> logout",
    "numberOfRequests": {
        "total": 6000,
        "ok": 6000,
        "ko": 0
    },
    "minResponseTime": {
        "total": 210,
        "ok": 210,
        "ko": 0
    },
    "maxResponseTime": {
        "total": 633,
        "ok": 633,
        "ko": 0
    },
    "meanResponseTime": {
        "total": 216,
        "ok": 216,
        "ko": 0
    },
    "standardDeviation": {
        "total": 15,
        "ok": 15,
        "ko": 0
    },
    "percentiles1": {
        "total": 214,
        "ok": 214,
        "ko": 0
    },
    "percentiles2": {
        "total": 215,
        "ok": 215,
        "ko": 0
    },
    "percentiles3": {
        "total": 225,
        "ok": 225,
        "ko": 0
    },
    "percentiles4": {
        "total": 265,
        "ok": 265,
        "ko": 0
    },
    "group1": {
    "name": "t < 800 ms",
    "count": 6000,
    "percentage": 100
},
    "group2": {
    "name": "800 ms < t < 1200 ms",
    "count": 0,
    "percentage": 0
},
    "group3": {
    "name": "t > 1200 ms",
    "count": 0,
    "percentage": 0
},
    "group4": {
    "name": "failed",
    "count": 0,
    "percentage": 0
},
    "meanNumberOfRequestsPerSecond": {
        "total": 9.819967266775777,
        "ok": 9.819967266775777,
        "ko": 0
    }
}
    },"req_siette--logout--9e3a2": {
        "type": "REQUEST",
        "name": "Siette> logout Redirect 1",
"path": "Siette> logout Redirect 1",
"pathFormatted": "req_siette--logout--9e3a2",
"stats": {
    "name": "Siette> logout Redirect 1",
    "numberOfRequests": {
        "total": 6000,
        "ok": 6000,
        "ko": 0
    },
    "minResponseTime": {
        "total": 294,
        "ok": 294,
        "ko": 0
    },
    "maxResponseTime": {
        "total": 972,
        "ok": 972,
        "ko": 0
    },
    "meanResponseTime": {
        "total": 359,
        "ok": 359,
        "ko": 0
    },
    "standardDeviation": {
        "total": 69,
        "ok": 69,
        "ko": 0
    },
    "percentiles1": {
        "total": 335,
        "ok": 335,
        "ko": 0
    },
    "percentiles2": {
        "total": 378,
        "ok": 378,
        "ko": 0
    },
    "percentiles3": {
        "total": 500,
        "ok": 500,
        "ko": 0
    },
    "percentiles4": {
        "total": 634,
        "ok": 634,
        "ko": 0
    },
    "group1": {
    "name": "t < 800 ms",
    "count": 5994,
    "percentage": 100
},
    "group2": {
    "name": "800 ms < t < 1200 ms",
    "count": 6,
    "percentage": 0
},
    "group3": {
    "name": "t > 1200 ms",
    "count": 0,
    "percentage": 0
},
    "group4": {
    "name": "failed",
    "count": 0,
    "percentage": 0
},
    "meanNumberOfRequestsPerSecond": {
        "total": 9.819967266775777,
        "ok": 9.819967266775777,
        "ko": 0
    }
}
    },"req_siette--logout--848ce": {
        "type": "REQUEST",
        "name": "Siette> logout Redirect 2",
"path": "Siette> logout Redirect 2",
"pathFormatted": "req_siette--logout--848ce",
"stats": {
    "name": "Siette> logout Redirect 2",
    "numberOfRequests": {
        "total": 6000,
        "ok": 6000,
        "ko": 0
    },
    "minResponseTime": {
        "total": 213,
        "ok": 213,
        "ko": 0
    },
    "maxResponseTime": {
        "total": 1523,
        "ok": 1523,
        "ko": 0
    },
    "meanResponseTime": {
        "total": 225,
        "ok": 225,
        "ko": 0
    },
    "standardDeviation": {
        "total": 51,
        "ok": 51,
        "ko": 0
    },
    "percentiles1": {
        "total": 219,
        "ok": 219,
        "ko": 0
    },
    "percentiles2": {
        "total": 221,
        "ok": 221,
        "ko": 0
    },
    "percentiles3": {
        "total": 245,
        "ok": 245,
        "ko": 0
    },
    "percentiles4": {
        "total": 290,
        "ok": 290,
        "ko": 0
    },
    "group1": {
    "name": "t < 800 ms",
    "count": 5986,
    "percentage": 100
},
    "group2": {
    "name": "800 ms < t < 1200 ms",
    "count": 8,
    "percentage": 0
},
    "group3": {
    "name": "t > 1200 ms",
    "count": 6,
    "percentage": 0
},
    "group4": {
    "name": "failed",
    "count": 0,
    "percentage": 0
},
    "meanNumberOfRequestsPerSecond": {
        "total": 9.819967266775777,
        "ok": 9.819967266775777,
        "ko": 0
    }
}
    }
}

}