{
    "name": "Global Information",
    "numberOfRequests": {
        "total": 195994,
        "ok": 195992,
        "ko": 2
    },
    "minResponseTime": {
        "total": 209,
        "ok": 209,
        "ko": 129162
    },
    "maxResponseTime": {
        "total": 130542,
        "ok": 2455,
        "ko": 130542
    },
    "meanResponseTime": {
        "total": 350,
        "ok": 349,
        "ko": 129852
    },
    "standardDeviation": {
        "total": 458,
        "ok": 197,
        "ko": 690
    },
    "percentiles1": {
        "total": 231,
        "ok": 231,
        "ko": 129852
    },
    "percentiles2": {
        "total": 436,
        "ok": 436,
        "ko": 130197
    },
    "percentiles3": {
        "total": 746,
        "ok": 746,
        "ko": 130473
    },
    "percentiles4": {
        "total": 861,
        "ok": 861,
        "ko": 130528
    },
    "group1": {
    "name": "t < 800 ms",
    "count": 187386,
    "percentage": 96
},
    "group2": {
    "name": "800 ms < t < 1200 ms",
    "count": 8212,
    "percentage": 4
},
    "group3": {
    "name": "t > 1200 ms",
    "count": 394,
    "percentage": 0
},
    "group4": {
    "name": "failed",
    "count": 2,
    "percentage": 0
},
    "meanNumberOfRequestsPerSecond": {
        "total": 159.60423452768728,
        "ok": 159.6026058631922,
        "ko": 0.0016286644951140066
    }
}