RUN	Cuestionario15Completo	cuestionario15completo	1592455236220	 	3.3.1
USER	Auth Flow	1	START	1592455236618	1592455236618
REQUEST	1		Siette> Abrir Siette	1592455236680	1592455239483	OK	 
REQUEST	1		Siette> Abrir Siette Redirect 1	1592455239503	1592455239717	OK	 
REQUEST	1		Siette> Abrir Siette Redirect 2	1592455239718	1592455239932	OK	 
REQUEST	1		Siette> Abrir Siette Redirect 3	1592455239933	1592455240159	OK	 
REQUEST	1		Siette> Login Action	1592455243689	1592455244017	OK	 
REQUEST	1		Siette> Login Action Redirect 1	1592455244018	1592455244249	OK	 
REQUEST	1		Siette> Mis Next TEST	1592455246175	1592455246696	OK	 
REQUEST	1		Siette> Abrir selección de test CONCURRENCIA - TEST DE PRUEBA	1592455248658	1592455248971	OK	 
REQUEST	1		Siette> Abrir selección de test CONCURRENCIA - TEST DE PRUEBA Redirect 1	1592455248971	1592455249628	OK	 
REQUEST	1		Siette> Confirmar selección de test CONCURRENCIA - TEST DE PRUEBA	1592455251768	1592455252203	OK	 
REQUEST	1		p1	1592455255858	1592455256225	OK	 
REQUEST	1		p2	1592455258386	1592455258606	OK	 
REQUEST	1		p3	1592455260315	1592455260534	OK	 
REQUEST	1		p4	1592455262450	1592455262667	OK	 
REQUEST	1		p5	1592455264389	1592455264608	OK	 
REQUEST	1		p6	1592455266527	1592455266743	OK	 
REQUEST	1		p7	1592455268659	1592455268878	OK	 
REQUEST	1		p8	1592455270800	1592455271018	OK	 
REQUEST	1		p9	1592455272936	1592455273154	OK	 
REQUEST	1		p10	1592455275289	1592455275507	OK	 
REQUEST	1		p11	1592455277649	1592455277866	OK	 
REQUEST	1		p12	1592455280850	1592455281066	OK	 
REQUEST	1		p13	1592455283864	1592455284082	OK	 
REQUEST	1		p14	1592455286227	1592455286444	OK	 
REQUEST	1		pregunta, send empty 15	1592455288370	1592455288588	OK	 
REQUEST	1		Siette> logout	1592455290497	1592455290713	OK	 
REQUEST	1		Siette> logout Redirect 1	1592455290713	1592455291066	OK	 
REQUEST	1		Siette> logout Redirect 2	1592455291067	1592455291289	OK	 
USER	Auth Flow	1	END	1592455236618	1592455293422
