{
    "name": "Global Information",
    "numberOfRequests": {
        "total": 28,
        "ok": 28,
        "ko": 0
    },
    "minResponseTime": {
        "total": 214,
        "ok": 214,
        "ko": 0
    },
    "maxResponseTime": {
        "total": 2803,
        "ok": 2803,
        "ko": 0
    },
    "meanResponseTime": {
        "total": 363,
        "ok": 363,
        "ko": 0
    },
    "standardDeviation": {
        "total": 481,
        "ok": 481,
        "ko": 0
    },
    "percentiles1": {
        "total": 219,
        "ok": 219,
        "ko": 0
    },
    "percentiles2": {
        "total": 317,
        "ok": 317,
        "ko": 0
    },
    "percentiles3": {
        "total": 609,
        "ok": 609,
        "ko": 0
    },
    "percentiles4": {
        "total": 2224,
        "ok": 2224,
        "ko": 0
    },
    "group1": {
    "name": "t < 800 ms",
    "count": 27,
    "percentage": 96
},
    "group2": {
    "name": "800 ms < t < 1200 ms",
    "count": 0,
    "percentage": 0
},
    "group3": {
    "name": "t > 1200 ms",
    "count": 1,
    "percentage": 4
},
    "group4": {
    "name": "failed",
    "count": 0,
    "percentage": 0
},
    "meanNumberOfRequestsPerSecond": {
        "total": 0.49122807017543857,
        "ok": 0.49122807017543857,
        "ko": 0
    }
}